<svg xmlns="http://www.w3.org/2000/svg" width="94.006" height="94.007" viewBox="0 0 94.006 94.007">
  <g id="calendar" transform="translate(0 0)">
    <path id="Path_543" data-name="Path 543" d="M78.306,10.654c-.012-.054-.045-.1-.061-.148a1.443,1.443,0,0,0-.1-.254,1.5,1.5,0,0,0-.175-.262,1.6,1.6,0,0,0-.179-.188,1.423,1.423,0,0,0-.257-.172,1.174,1.174,0,0,0-.558-.184,1.593,1.593,0,0,0-.2-.045h-7.9c-.4-5.454-2.935-9.4-6.2-9.4s-5.8,3.947-6.2,9.4H53.2C52.8,3.947,50.27,0,47,0s-5.8,3.947-6.2,9.4H37.537c-.4-5.454-2.935-9.4-6.2-9.4s-5.8,3.947-6.2,9.4H21.869c-.4-5.454-2.935-9.4-6.2-9.4s-5.8,3.947-6.2,9.4h-7.9A1.567,1.567,0,0,0,0,10.967V92.441a1.567,1.567,0,0,0,1.567,1.567H76.772a1.567,1.567,0,0,0,1.567-1.567v-4.7h14.1a1.567,1.567,0,0,0,1.534-1.88ZM62.671,3.134c1.131,0,2.711,2.4,3.059,6.267H59.619C59.961,5.534,61.54,3.134,62.671,3.134ZM47,3.134c1.131,0,2.711,2.4,3.059,6.267H43.951C44.293,5.534,45.872,3.134,47,3.134Zm-15.668,0c1.131,0,2.711,2.4,3.059,6.267H28.283c.342-3.866,1.921-6.267,3.052-6.267Zm-15.668,0c1.131,0,2.711,2.4,3.059,6.267H12.615C12.957,5.534,14.536,3.134,15.668,3.134Zm-12.534,9.4H9.466c.4,5.454,2.935,9.4,6.2,9.4a1.567,1.567,0,1,0,0-3.134c-1.131,0-2.711-2.4-3.059-6.267H25.134c.409,5.454,2.935,9.4,6.2,9.4a1.567,1.567,0,1,0,0-3.134c-1.131,0-2.711-2.4-3.059-6.267H40.8c.409,5.454,2.935,9.4,6.2,9.4A1.567,1.567,0,0,0,47,18.8c-1.131,0-2.711-2.4-3.059-6.267H56.47c.409,5.454,2.935,9.4,6.2,9.4a1.567,1.567,0,1,0,0-3.134c-1.131,0-2.711-2.4-3.059-6.267H75.206V28.2H3.133Zm72.072,78.34H3.133V31.336H75.206Zm3.134-6.267V26.166L90.515,84.607Zm0,0"/>
    <path id="Path_544" data-name="Path 544" d="M143.834,288h-6.267A1.567,1.567,0,0,0,136,289.567v6.267a1.567,1.567,0,0,0,1.567,1.567h6.267a1.567,1.567,0,0,0,1.567-1.567v-6.267A1.567,1.567,0,0,0,143.834,288Zm-1.567,6.267h-3.134v-3.134h3.134Zm0,0" transform="translate(-109.365 -231.596)"/>
    <path id="Path_545" data-name="Path 545" d="M223.834,288h-6.267A1.567,1.567,0,0,0,216,289.567v6.267a1.567,1.567,0,0,0,1.567,1.567h6.267a1.567,1.567,0,0,0,1.567-1.567v-6.267A1.567,1.567,0,0,0,223.834,288Zm-1.567,6.267h-3.134v-3.134h3.134Zm0,0" transform="translate(-173.697 -231.596)"/>
    <path id="Path_546" data-name="Path 546" d="M63.834,288H57.567A1.567,1.567,0,0,0,56,289.567v6.267a1.567,1.567,0,0,0,1.567,1.567h6.267a1.567,1.567,0,0,0,1.567-1.567v-6.267A1.567,1.567,0,0,0,63.834,288Zm-1.567,6.267H59.134v-3.134h3.134Zm0,0" transform="translate(-45.033 -231.596)"/>
    <path id="Path_547" data-name="Path 547" d="M143.834,368h-6.267A1.567,1.567,0,0,0,136,369.567v6.267a1.567,1.567,0,0,0,1.567,1.567h6.267a1.567,1.567,0,0,0,1.567-1.567v-6.267A1.567,1.567,0,0,0,143.834,368Zm-1.567,6.267h-3.134v-3.134h3.134Zm0,0" transform="translate(-109.365 -295.928)"/>
    <path id="Path_548" data-name="Path 548" d="M223.834,368h-6.267A1.567,1.567,0,0,0,216,369.567v6.267a1.567,1.567,0,0,0,1.567,1.567h6.267a1.567,1.567,0,0,0,1.567-1.567v-6.267A1.567,1.567,0,0,0,223.834,368Zm-1.567,6.267h-3.134v-3.134h3.134Zm0,0" transform="translate(-173.697 -295.928)"/>
    <path id="Path_549" data-name="Path 549" d="M63.834,368H57.567A1.567,1.567,0,0,0,56,369.567v6.267a1.567,1.567,0,0,0,1.567,1.567h6.267a1.567,1.567,0,0,0,1.567-1.567v-6.267A1.567,1.567,0,0,0,63.834,368Zm-1.567,6.267H59.134v-3.134h3.134Zm0,0" transform="translate(-45.033 -295.928)"/>
    <path id="Path_550" data-name="Path 550" d="M143.834,208h-6.267A1.567,1.567,0,0,0,136,209.567v6.267a1.567,1.567,0,0,0,1.567,1.567h6.267a1.567,1.567,0,0,0,1.567-1.567v-6.267A1.567,1.567,0,0,0,143.834,208Zm-1.567,6.267h-3.134v-3.134h3.134Zm0,0" transform="translate(-109.365 -167.263)"/>
    <path id="Path_551" data-name="Path 551" d="M223.834,208h-6.267A1.567,1.567,0,0,0,216,209.567v6.267a1.567,1.567,0,0,0,1.567,1.567h6.267a1.567,1.567,0,0,0,1.567-1.567v-6.267A1.567,1.567,0,0,0,223.834,208Zm-1.567,6.267h-3.134v-3.134h3.134Zm0,0" transform="translate(-173.697 -167.263)"/>
    <path id="Path_552" data-name="Path 552" d="M303.834,288h-6.267A1.567,1.567,0,0,0,296,289.567v6.267a1.567,1.567,0,0,0,1.567,1.567h6.267a1.567,1.567,0,0,0,1.567-1.567v-6.267A1.567,1.567,0,0,0,303.834,288Zm-1.567,6.267h-3.134v-3.134h3.134Zm0,0" transform="translate(-238.029 -231.596)"/>
    <path id="Path_553" data-name="Path 553" d="M303.834,368h-6.267A1.567,1.567,0,0,0,296,369.567v6.267a1.567,1.567,0,0,0,1.567,1.567h6.267a1.567,1.567,0,0,0,1.567-1.567v-6.267A1.567,1.567,0,0,0,303.834,368Zm-1.567,6.267h-3.134v-3.134h3.134Zm0,0" transform="translate(-238.029 -295.928)"/>
    <path id="Path_554" data-name="Path 554" d="M303.834,208h-6.267A1.567,1.567,0,0,0,296,209.567v6.267a1.567,1.567,0,0,0,1.567,1.567h6.267a1.567,1.567,0,0,0,1.567-1.567v-6.267A1.567,1.567,0,0,0,303.834,208Zm-1.567,6.267h-3.134v-3.134h3.134Zm0,0" transform="translate(-238.029 -167.263)"/>
    <path id="Path_555" data-name="Path 555" d="M63.834,208H57.567A1.567,1.567,0,0,0,56,209.567v6.267a1.567,1.567,0,0,0,1.567,1.567h6.267a1.567,1.567,0,0,0,1.567-1.567v-6.267A1.567,1.567,0,0,0,63.834,208Zm-1.567,6.267H59.134v-3.134h3.134Zm0,0" transform="translate(-45.033 -167.263)"/>
  </g>
</svg>
