<?xml version="1.0" encoding="UTF-8"?>
<!DOCTYPE svg PUBLIC "-//W3C//DTD SVG 1.1//EN" "http://www.w3.org/Graphics/SVG/1.1/DTD/svg11.dtd">
<!-- Creator: CorelDRAW -->
<svg xmlns="http://www.w3.org/2000/svg" xml:space="preserve" width="78.5599mm" height="47.0446mm" style="shape-rendering:geometricPrecision; text-rendering:geometricPrecision; image-rendering:optimizeQuality; fill-rule:evenodd; clip-rule:evenodd"
viewBox="0 0 330.275 197.781"
 xmlns:xlink="http://www.w3.org/1999/xlink">
 <defs>
  <style type="text/css">
   <![CDATA[
    .str7 {stroke:white;stroke-width:0.739505}
    .str9 {stroke:white;stroke-width:0.739505;stroke-linecap:round}
    .str8 {stroke:white;stroke-width:0.739505;stroke-linecap:round;stroke-linejoin:round}
    .str2 {stroke:#0E0E22;stroke-width:1.11241;stroke-linecap:round}
    .str4 {stroke:#464646;stroke-width:1.11241}
    .str3 {stroke:#75DBF4;stroke-width:1.11241}
    .str5 {stroke:white;stroke-width:1.4437}
    .str0 {stroke:#464646;stroke-width:1.44412}
    .str6 {stroke:#52BAD8;stroke-width:1.44412}
    .str1 {stroke:#525253;stroke-width:1.51937;stroke-linejoin:round}
    .fil7 {fill:none;fill-rule:nonzero}
    .fil3 {fill:#52BAD8}
    .fil18 {fill:#FFB072}
    .fil4 {fill:white}
    .fil20 {fill:#525253;fill-rule:nonzero}
    .fil17 {fill:#5BBFDD;fill-rule:nonzero}
    .fil12 {fill:#96989A;fill-rule:nonzero}
    .fil14 {fill:#BDBFC1;fill-rule:nonzero}
    .fil15 {fill:#002455;fill-rule:nonzero}
    .fil8 {fill:#191213;fill-rule:nonzero}
    .fil0 {fill:#464646;fill-rule:nonzero}
    .fil1 {fill:#52BAD8;fill-rule:nonzero}
    .fil11 {fill:#75DBF4;fill-rule:nonzero}
    .fil10 {fill:#9FD930;fill-rule:nonzero}
    .fil6 {fill:#B6F4FF;fill-rule:nonzero}
    .fil9 {fill:#D6F6FF;fill-rule:nonzero}
    .fil16 {fill:#FFB072;fill-rule:nonzero}
    .fil2 {fill:white;fill-rule:nonzero}
    .fil21 {fill:#0048C0;fill-rule:nonzero;fill-opacity:0.501961}
    .fil13 {fill:#464646;fill-rule:nonzero;fill-opacity:0.501961}
    .fil19 {fill:#624246;fill-opacity:0.701961}
    .fil5 {fill:#624246;fill-rule:nonzero;fill-opacity:0.701961}
   ]]>
  </style>
 </defs>
 <g id="Layer_x0020_1">
  <metadata id="CorelCorpID_0Corel-Layer"/>
  <g id="_253200680">
   <g>
    <path id="_101795040" class="fil0" d="M255.91 133.309l-173.139 0c-1.17842,0 -2.13359,-0.955176 -2.13359,-2.13401l0 -93.6943c0,-1.17884 0.955176,-2.13359 2.13359,-2.13359l173.139 0c1.17884,0 2.13401,0.954756 2.13401,2.13359l0 93.6943c0,1.17884 -0.955176,2.13401 -2.13401,2.13401z"/>
    <path id="_101794968" class="fil1" d="M252.808 129.612l-173.139 0c-1.17842,0 -2.13359,-0.956017 -2.13359,-2.13443l0 -93.6939c0,-1.17884 0.955176,-2.13401 2.13359,-2.13401l173.139 0c1.17842,0 2.13443,0.955176 2.13443,2.13401l0 93.6939c0,1.17842 -0.956017,2.13443 -2.13443,2.13443z"/>
    <g>
     <path id="_101794896" class="fil2 str0" d="M250.664 125.914l-175.055 0c-0.649116,0 -1.17547,-0.526356 -1.17547,-1.17547l0 -95.611c0,-0.649116 0.526356,-1.17547 1.17547,-1.17547l175.055 0c0.649116,0 1.17547,0.526356 1.17547,1.17547l0 95.611c0,0.649116 -0.526356,1.17547 -1.17547,1.17547z"/>
     <path id="_101794824" class="fil3" d="M84.3216 36.348l11.3461 0 0 -0.667615 -11.3461 0 0 0.667615zm-2.66962 0.333387l0 0 1.33481 0 0 -1.33439 -1.33481 0 0 1.33439zm2.66962 3.33723l0 0 11.3461 0 0 -0.667615 -11.3461 0 0 0.667615zm-2.66962 0.333807l0 0 1.33481 0 0 -1.33481 -1.33481 0 0 1.33481zm2.66962 3.33723l0 0 11.3461 0 0 -0.667615 -11.3461 0 0 0.667615zm-2.66962 0.333387l0 0 1.33481 0 0 -1.33481 -1.33481 0 0 1.33481z"/>
     <path id="_101794752" class="fil4 str0" d="M123.672 98.7742l-33.6544 0c-4.62033,0 -8.36536,-3.74587 -8.36536,-8.36578l0 -32.1132c0,-4.62033 3.74503,-8.36578 8.36536,-8.36578l33.6544 0c4.61991,0 8.36536,3.74545 8.36536,8.36578l0 32.1132c0,4.61991 -3.74545,8.36578 -8.36536,8.36578z"/>
     <path id="_101794680" class="fil4 str0" d="M180.268 98.7742l-33.654 0c-4.62033,0 -8.36578,-3.74587 -8.36578,-8.36578l0 -32.1132c0,-4.62033 3.74545,-8.36578 8.36578,-8.36578l33.654 0c4.61991,0 8.36578,3.74545 8.36578,8.36578l0 32.1132c0,4.61991 -3.74587,8.36578 -8.36578,8.36578z"/>
     <path id="_101794608" class="fil4 str0" d="M236.864 98.7742l-33.654 0c-4.61991,0 -8.36578,-3.74587 -8.36578,-8.36578l0 -32.1132c0,-4.62033 3.74587,-8.36578 8.36578,-8.36578l33.654 0c4.62075,0 8.36578,3.74545 8.36578,8.36578l0 32.1132c0,4.61991 -3.74503,8.36578 -8.36578,8.36578z"/>
     <g>
      <g>
       <g>
        <path id="_101794560" class="fil1" d="M232.9 40.3419l-0.847131 -5.64193c-0.0231227,-0.155553 -0.153871,-0.269064 -0.311525,-0.269905l-1.51685 -0.00966948 0.00462453 -0.700407 1.51727 0.00966948c0.504074,0.0033633 0.924486,0.36744 0.99932,0.866049l0.0945927 0.627675 9.56942 0.0601189 -0.982924 4.45006 -8.5268 0.608336zm0.0449841 -4.41769l0 0 0.551581 3.67314 7.35889 -0.525095 0.684011 -3.09339 -8.59449 -0.0546536z"/>
       </g>
       <g>
        <path id="_101794464" class="fil1" d="M241.556 41.6696l-8.27119 -0.047927c-0.177414,-0.00126124 -0.345579,-0.0794579 -0.459931,-0.214831 -0.114773,-0.135793 -0.163961,-0.314468 -0.135793,-0.48978l0.1627 -1.00352 0.691578 0.11225 -0.145463 0.896319 8.16188 0.0470862 -0.00378371 0.700407z"/>
       </g>
       <path id="_101794344" class="fil1" d="M235.397 43.054c-0.00378371,0.520891 -0.429661,0.941303 -0.950552,0.93794 -0.521732,-0.0033633 -0.941723,-0.42882 -0.93836,-0.950132 0.00294289,-0.521732 0.42882,-0.941723 0.950132,-0.93836 0.521732,0.0033633 0.941723,0.4284 0.93878,0.950552z"/>
       <path id="_101794296" class="fil1" d="M240.35 43.0847c-0.00294289,0.521732 -0.4284,0.941723 -0.949711,0.93836 -0.521732,-0.00294289 -0.941723,-0.4284 -0.93836,-0.950132 0.0033633,-0.521311 0.4284,-0.941303 0.950132,-0.93836 0.521311,0.0033633 0.941303,0.42882 0.93794,0.950132z"/>
      </g>
     </g>
     <polygon id="_101794176" class="fil2 str1" points="138.006,102.153 188.633,102.153 "/>
    </g>
    <g>
     <path id="_101794056" class="fil5" d="M183.019 80.9193c0,0.691158 -8.26783,1.25115 -18.4662,1.25115 -10.1988,0 -18.4666,-0.559989 -18.4666,-1.25115 0,-0.691158 8.26783,-1.25157 18.4666,-1.25157 10.1984,0 18.4662,0.560409 18.4662,1.25157z"/>
     <g>
      <g>
       <path id="_101793984" class="fil6" d="M149.853 67.8671c0,0 0.369542,-0.934156 3.60251,0.293027 1.75396,0.665512 4.03932,2.27275 8.48686,0.333387 0,0 1.35499,4.49715 -4.31301,4.10406 -5.668,-0.393085 -7.77636,-4.73048 -7.77636,-4.73048z"/>
       <path id="_101793912" class="fil0" d="M181.378 75.1041l1.31295 0.345579c0.745391,0.395608 0.706292,2.38037 0.0912294,2.99333 0,0 -5.30182,3.0997 -20.826,3.36246 -8.92997,-0.172369 -14.8981,-1.69889 -15.1739,-2.30554 -0.27579,-0.606655 -0.300595,-1.9629 -0.245941,-2.92186l1.68375 -1.96164 33.1579 0.487678z"/>
       <path id="_101793840" class="fil1" d="M149.853 67.8671c0,0 -1.74934,1.67913 -1.95702,3.06186 -0.298072,1.98729 -0.633982,2.97315 -0.419571,4.97978 0,0 5.03528,1.9629 13.4238,2.06044 4.14022,0.047927 10.0802,-0.202218 14.4264,-0.977038 3.69837,-0.659206 7.36478,-1.54249 7.36478,-1.54249 -1.06827,-3.73915 -4.29871,-2.35094 -8.90391,-3.80851 -3.13207,-0.991332 -10.5889,-7.14659 -10.5889,-7.14659 0,0 -1.72873,1.28268 -1.82249,1.94188 -0.0592781,0.416208 0.763469,1.49877 0.763469,1.49877 0,0 -0.207263,3.53441 -3.73452,3.769 -3.43477,0.228284 -8.55202,-3.8371 -8.55202,-3.8371z"/>
       <g>
        <path id="_101793792" class="fil7" d="M182.691 75.4497c0,0 -2.78229,1.88555 -6.84978,2.67424 -4.15409,0.80551 -10.94,1.07415 -15.1689,0.913135 -4.67414,-0.177834 -14.1359,-2.45899 -14.1359,-2.45899l36.1546 -1.12839z"/>
       </g>
       <path id="_101793672" class="fil7 str2" d="M162.139 67.9352c0,0 1.78675,0.00546536 2.42031,0.227023 1.48952,0.521311 5.80253,3.96281 9.03382,4.37103"/>
       <path id="_101793600" class="fil8" d="M167.477 67.8037l-1.44033 2.32698c-0.198014,0.27495 -1.06028,-0.345999 -0.863106,-0.620528l1.33439 -2.45563c0.287562,-0.372065 1.25703,0.37711 0.96905,0.749174z"/>
       <path id="_101793528" class="fil8" d="M169.573 69.0413l-1.51475 2.46698c-0.184141,0.414947 -1.15277,-0.0159757 -0.968209,-0.430502l1.51348 -2.78607c0.288403,-0.372065 1.25703,0.37711 0.96947,0.749595z"/>
       <path id="_101793456" class="fil8" d="M171.669 70.2782l-1.5324 2.48001c-0.16312,0.349783 -1.11367,-0.0929111 -0.950552,-0.443114l1.51432 -2.78607c0.287562,-0.372065 1.25619,0.376689 0.96863,0.749174z"/>
       <path id="_101793384" class="fil8" d="M163.1 69.0897c0.0281676,-0.680647 1.1267,-0.635243 1.09854,0.0454045l-0.435547 4.13349c0,0.596565 -0.626835,0.596565 -0.626835,0l-0.0361554 -4.1789z"/>
       <path id="_101793312" class="fil7 str2" d="M159.278 78.005c0,0 0.504915,-1.84435 2.27317,-2.67761 1.98266,-0.934997 6.69254,0.831575 9.29868,-0.614643 0.765991,-0.425037 2.74319,-2.17942 2.74319,-2.17942"/>
       <path id="_101793264" class="fil7 str2" d="M148.354 69.8389c0,0 2.79406,1.25241 4.09397,2.90295 0.585214,0.743289 1.40123,4.74225 1.40123,4.74225"/>
      </g>
     </g>
    </g>
    <g>
     <path id="_101793096" class="fil5" d="M124.995 80.9193c0,0.691158 -8.26783,1.25115 -18.4666,1.25115 -10.1988,0 -18.4666,-0.559989 -18.4666,-1.25115 0,-0.691158 8.26783,-1.25157 18.4666,-1.25157 10.1988,0 18.4666,0.560409 18.4666,1.25157z"/>
     <g>
      <g>
       <path id="_101793024" class="fil1" d="M91.8289 67.8671c0,0 0.369122,-0.934156 3.60251,0.293027 1.75354,0.665512 4.0389,2.27275 8.48686,0.333387 0,0 1.35499,4.49715 -4.31343,4.10406 -5.668,-0.393085 -7.77594,-4.73048 -7.77594,-4.73048z"/>
       <path id="_101792952" class="fil8" d="M123.355 75.1041l1.31211 0.345579c0.745811,0.395608 0.706713,2.38037 0.0916499,2.99333 0,0 -5.30224,3.0997 -20.8264,3.36246 -8.92997,-0.172369 -14.8981,-1.69889 -15.1739,-2.30554 -0.27579,-0.606655 -0.300595,-1.9629 -0.245521,-2.92186l1.68333 -1.96164 33.1587 0.487678z"/>
       <path id="_101792880" class="fil0" d="M91.8289 67.8671c0,0 -1.75018,1.67913 -1.95744,3.06186 -0.298072,1.98729 -0.633561,2.97315 -0.419151,4.97978 0,0 5.03486,1.9629 13.4233,2.06044 4.14022,0.047927 10.0802,-0.202218 14.4269,-0.977038 3.69837,-0.659206 7.36436,-1.54249 7.36436,-1.54249 -1.06785,-3.73915 -4.29871,-2.35094 -8.90349,-3.80851 -3.13207,-0.991332 -10.5893,-7.14659 -10.5893,-7.14659 0,0 -1.72873,1.28268 -1.82249,1.94188 -0.0592781,0.416208 0.763469,1.49877 0.763469,1.49877 0,0 -0.207263,3.53441 -3.73452,3.769 -3.43477,0.228284 -8.5516,-3.8371 -8.5516,-3.8371z"/>
       <g>
        <path id="_101792832" class="fil7" d="M124.667 75.4497c0,0 -2.78145,1.88555 -6.84893,2.67424 -4.15451,0.80551 -10.9408,1.07415 -15.1697,0.913135 -4.67414,-0.177834 -14.1355,-2.45899 -14.1355,-2.45899l36.1542 -1.12839z"/>
       </g>
       <path id="_101792712" class="fil7 str3" d="M104.115 67.9352c0,0 1.78675,0.00546536 2.42031,0.227023 1.48994,0.521311 5.80295,3.96281 9.03382,4.37103"/>
       <path id="_101792640" class="fil8" d="M109.453 67.8037l-1.44033 2.32698c-0.197594,0.27495 -1.06028,-0.345999 -0.862686,-0.620528l1.33439 -2.45563c0.287562,-0.372065 1.25661,0.37711 0.96863,0.749174z"/>
       <path id="_101792568" class="fil8" d="M111.549 69.0413l-1.51432 2.46698c-0.184141,0.414947 -1.15277,-0.0159757 -0.968209,-0.430502l1.5139 -2.78607c0.287562,-0.372065 1.25661,0.37711 0.96863,0.749595z"/>
       <path id="_101792496" class="fil8" d="M113.645 70.2782l-1.53282 2.48001c-0.16312,0.349783 -1.11325,-0.0929111 -0.950132,-0.443114l1.5139 -2.78607c0.287982,-0.372065 1.25703,0.376689 0.96905,0.749174z"/>
       <path id="_101792424" class="fil8" d="M105.076 69.0897c0.0281676,-0.680647 1.1267,-0.635243 1.09854,0.0454045l-0.435967 4.13349c0.000420412,0.596565 -0.626414,0.596565 -0.626414,0l-0.0361554 -4.1789z"/>
       <path id="_101792352" class="fil7 str3" d="M101.254 78.005c0,0 0.505335,-1.84435 2.27359,-2.67761 1.98224,-0.934997 6.69296,0.831575 9.29868,-0.614643 0.765571,-0.425037 2.74277,-2.17942 2.74277,-2.17942"/>
       <path id="_101792304" class="fil7 str3" d="M90.3302 69.8389c0,0 2.79406,1.25241 4.09397,2.90295 0.585214,0.743289 1.40123,4.74225 1.40123,4.74225"/>
      </g>
     </g>
    </g>
    <g>
     <path id="_101792136" class="fil5" d="M238.389 80.9193c0,0.691158 -8.26783,1.25115 -18.4666,1.25115 -10.1988,0 -18.4662,-0.559989 -18.4662,-1.25115 0,-0.691158 8.26741,-1.25157 18.4662,-1.25157 10.1988,0 18.4666,0.560409 18.4666,1.25157z"/>
     <g>
      <g>
       <path id="_101792064" class="fil1" d="M205.223 67.8671c0,0 0.369963,-0.934156 3.60251,0.293027 1.75396,0.665512 4.03974,2.27275 8.48686,0.333387 0,0 1.35541,4.49715 -4.31259,4.10406 -5.66842,-0.393085 -7.77678,-4.73048 -7.77678,-4.73048z"/>
       <path id="_101791992" class="fil8" d="M236.749 75.1041l1.31253 0.345579c0.745391,0.395608 0.706292,2.38037 0.0912294,2.99333 0,0 -5.30182,3.0997 -20.8264,3.36246 -8.92997,-0.172369 -14.8977,-1.69889 -15.1735,-2.30554 -0.27579,-0.606655 -0.301015,-1.9629 -0.245941,-2.92186l1.68333 -1.96164 33.1587 0.487678z"/>
       <path id="_101791920" class="fil6" d="M205.223 67.8671c0,0 -1.74934,1.67913 -1.9566,3.06186 -0.298072,1.98729 -0.633561,2.97315 -0.419571,4.97978 0,0 5.03486,1.9629 13.4233,2.06044 4.14064,0.047927 10.0806,-0.202218 14.4269,-0.977038 3.69837,-0.659206 7.36478,-1.54249 7.36478,-1.54249 -1.06827,-3.73915 -4.29913,-2.35094 -8.90391,-3.80851 -3.13207,-0.991332 -10.5893,-7.14659 -10.5893,-7.14659 0,0 -1.72831,1.28268 -1.82207,1.94188 -0.0592781,0.416208 0.763469,1.49877 0.763469,1.49877 0,0 -0.207684,3.53441 -3.73494,3.769 -3.43435,0.228284 -8.55202,-3.8371 -8.55202,-3.8371z"/>
       <g>
        <path id="_101791872" class="fil7" d="M238.061 75.4497c0,0 -2.78229,1.88555 -6.84936,2.67424 -4.15451,0.80551 -10.9408,1.07415 -15.1697,0.913135 -4.67414,-0.177834 -14.1355,-2.45899 -14.1355,-2.45899l36.1546 -1.12839z"/>
       </g>
       <path id="_101791752" class="fil7 str4" d="M217.509 67.9352c0,0 1.78675,0.00546536 2.42031,0.227023 1.48994,0.521311 5.80253,3.96281 9.03382,4.37103"/>
       <path id="_101791680" class="fil8" d="M222.847 67.8037l-1.43991 2.32698c-0.198014,0.27495 -1.0607,-0.345999 -0.862686,-0.620528l1.33397 -2.45563c0.287562,-0.372065 1.25703,0.37711 0.96863,0.749174z"/>
       <path id="_101791608" class="fil8" d="M224.943 69.0413l-1.51432 2.46698c-0.184141,0.414947 -1.15235,-0.0159757 -0.968209,-0.430502l1.51348 -2.78607c0.288403,-0.372065 1.25703,0.37711 0.96905,0.749595z"/>
       <path id="_101791536" class="fil8" d="M227.039 70.2782l-1.5324 2.48001c-0.16312,0.349783 -1.11367,-0.0929111 -0.950552,-0.443114l1.51432 -2.78607c0.287562,-0.372065 1.25619,0.376689 0.96863,0.749174z"/>
       <path id="_101791464" class="fil8" d="M218.47 69.0897c0.0281676,-0.680647 1.1267,-0.635243 1.09854,0.0454045l-0.435967 4.13349c0,0.596565 -0.626414,0.596565 -0.626835,0l-0.035735 -4.1789z"/>
       <path id="_101791392" class="fil7 str4" d="M214.649 78.005c0,0 0.504915,-1.84435 2.27317,-2.67761 1.98224,-0.934997 6.69254,0.831575 9.29868,-0.614643 0.765991,-0.425037 2.74319,-2.17942 2.74319,-2.17942"/>
       <path id="_101791344" class="fil7 str4" d="M203.724 69.8389c0,0 2.79448,1.25241 4.09397,2.90295 0.585214,0.743289 1.40123,4.74225 1.40123,4.74225"/>
      </g>
     </g>
    </g>
    <g>
     <path id="_101791176" class="fil1" d="M143.701 58.9187l0 0.0575965c0,0.286301 -0.0706292,0.409481 -0.235431,0.409481l-1.60261 0c-0.164802,0 -0.235431,-0.123181 -0.235431,-0.409481l0 -0.0575965c0,-0.286721 0.0706292,-0.409481 0.235431,-0.409481l1.60261 0c0.164802,0 0.235431,0.12276 0.235431,0.409481z"/>
     <path id="_101791128" class="fil1" d="M147.418 56.6985c0,1.1389 -0.628516,1.37643 -1.17842,1.37643 -0.549899,0 -1.17842,-0.237533 -1.17842,-1.37643 0,-1.1389 0.628516,-1.37643 1.17842,-1.37643 0.549899,0 1.17842,0.237533 1.17842,1.37643zm-1.5551 0l0 0c0,0.319513 0.0706292,0.704611 0.376689,0.704611 0.30606,0 0.369542,-0.385098 0.369542,-0.704611 0,-0.319093 -0.0634822,-0.671819 -0.369542,-0.671819 -0.30606,0 -0.376689,0.352726 -0.376689,0.671819zm3.74671 -1.21247l0 0c0,0.0248043 -0.0155553,0.0655843 -0.0390983,0.114773l-2.80457 5.30854c-0.0786171,0.147565 -0.180357,0.229545 -0.345999,0.229545l-0.345158 0c-0.109728,0 -0.164802,-0.0491882 -0.164802,-0.106785 0,-0.0323717 0.0151348,-0.0735721 0.0390983,-0.12276l2.80415 -5.30854c0.0790375,-0.147565 0.180777,-0.229125 0.345999,-0.229125l0.345158 0c0.110568,0 0.165222,0.0491882 0.165222,0.114352zm0.848392 4.32562l0 0c0,1.1389 -0.628096,1.37643 -1.17842,1.37643 -0.549479,0 -1.17799,-0.237533 -1.17799,-1.37643 0,-1.1389 0.628516,-1.37643 1.17799,-1.37643 0.55032,0 1.17842,0.237533 1.17842,1.37643zm-1.5551 0l0 0c0,0.319513 0.0706292,0.704611 0.376689,0.704611 0.30648,0 0.369542,-0.385098 0.369542,-0.704611 0,-0.319513 -0.0630618,-0.671819 -0.369542,-0.671819 -0.30606,0 -0.376689,0.352305 -0.376689,0.671819z"/>
    </g>
    <g>
     <g>
      <path id="_101791032" class="fil0" d="M177.298 85.693l0 0.54023c0.769775,0.0138736 2.13359,0.324138 2.13359,0.770195 0,0.202639 -0.296811,0.715962 -0.431763,0.715962 -0.202639,0 -0.688635,-0.486417 -1.70183,-0.513323l0 3.14721c1.20154,0.431763 2.57965,0.91818 2.57965,2.78229 0,1.53955 -0.99932,2.5128 -2.57965,2.64734l0 0.675602c0,0.148405 -0.0811395,0.215671 -0.270325,0.215671 -0.189185,0 -0.270325,-0.0672659 -0.270325,-0.215671l0 -0.662149c-1.5261,-0.0403596 -2.67424,-0.621369 -2.67424,-0.985867 0,-0.216092 0.324138,-0.729415 0.472964,-0.729415 0.161438,0 0.890853,0.702509 2.20128,0.742868l0 -3.4848c-1.18893,-0.459511 -2.49851,-0.932054 -2.49851,-2.67424 0,-1.32388 0.972413,-2.24206 2.49851,-2.40434l0 -0.567556c0,-0.148405 0.0811395,-0.216092 0.270325,-0.216092 0.189185,0 0.270325,0.0676864 0.270325,0.216092zm-1.81072 3.02571l0 0c0,0.769775 0.554103,1.13427 1.27007,1.4315l0 -2.90379c-0.769775,0.134952 -1.27007,0.621369 -1.27007,1.47228zm1.81072 6.06487l0 0c0.796681,-0.148405 1.35036,-0.770195 1.35036,-1.64802 0,-0.850914 -0.607496,-1.25619 -1.35036,-1.58033l0 3.22835z"/>
     </g>
     <path id="_101790936" class="fil0" d="M171.215 96.2332l-21.5995 0c-1.20238,0 -2.17731,-0.975356 -2.17731,-2.17774l0 -0.322456c0,-1.2028 0.974936,-2.17774 2.17731,-2.17774l21.5995 0c1.20238,0 2.17774,0.974936 2.17774,2.17774l0 0.322456c0,1.20238 -0.975356,2.17774 -2.17774,2.17774z"/>
    </g>
   </g>
   <g>
    <path id="_101790792" class="fil9" d="M328.982 197.781l-327.689 0c-1.22046,0 -1.759,-1.53745 -0.80551,-2.29923l49.0764 -39.2022c1.05271,-0.840824 2.39383,-1.30328 3.78119,-1.30328l223.585 0c1.38694,0 2.72847,0.462453 3.78119,1.30328l49.076 39.2022c0.953495,0.761787 0.414947,2.29923 -0.80551,2.29923z"/>
    <g>
     <path id="_101790720" class="fil1" d="M327.727 181.752l-325.178 0 50.423 -40.2784c1.0216,-0.8156 2.32362,-1.26418 3.66936,-1.26418l216.994 0c1.34616,0 2.64776,0.44858 3.66936,1.26418l50.423 40.2784z"/>
     <polygon id="_101790648" class="fil0" points="295.493,178.15 34.7828,178.15 71.4881,143.812 258.788,143.812 "/>
     <polygon id="_101790576" class="fil9" points="292.295,178.15 37.9805,178.15 73.7853,145.285 256.491,145.285 "/>
     <path id="_101790504" class="fil0" d="M319.802 192.557l-309.328 0c-4.37691,0 -7.92519,-3.54786 -7.92519,-7.92435l0 -2.88066 325.178 0 0 2.88066c0,4.37649 -3.54828,7.92435 -7.92519,7.92435z"/>
     <line id="_101790432" class="fil7 str5" x1="2.54854" y1="185.954" x2="327.727" y2= "185.954" />
     <path id="_101790360" class="fil10" d="M111.821 189.113l-44.4804 0c-1.46051,0 -2.64439,-1.18388 -2.64439,-2.64397l0 -0.391824c0,-1.46093 1.18388,-2.64439 2.64439,-2.64439l44.4804 0c1.46051,0 2.64439,1.18346 2.64439,2.64439l0 0.391824c0,1.46009 -1.18388,2.64397 -2.64439,2.64397z"/>
     <path id="_101790288" class="fil11" d="M112.118 189.113l-45.0749 0c-1.29655,0 -2.34716,-1.05103 -2.34716,-2.34716l0 -0.347681c0,-1.29697 1.05061,-2.34758 2.34716,-2.34758l45.0749 0c1.29655,0 2.34716,1.05061 2.34716,2.34758l0 0.347681c0,1.29613 -1.05061,2.34716 -2.34716,2.34716z"/>
     <g>
      <polygon id="_101790216" class="fil11" points="271.435,150.12 289.915,166.46 299.81,166.46 299.81,165.159 271.435,148.819 "/>
      <polygon id="_101790168" class="fil2" points="271.435,148.819 289.915,165.159 299.81,165.159 279.271,148.819 "/>
     </g>
     <path id="_101790048" class="fil2" d="M53.5298 156.619c0,1.86957 -3.48101,3.38474 -7.7751,3.38474 -4.29367,0 -7.77426,-1.51517 -7.77426,-3.38474 0,-1.86915 3.48059,-3.38474 7.77426,-3.38474 4.29409,0 7.7751,1.51559 7.7751,3.38474z"/>
     <path id="_101789976" class="fil0" d="M51.1999 156.368c0,1.17043 -2.43797,2.1193 -5.44518,2.1193 -3.00679,0 -5.44434,-0.94887 -5.44434,-2.1193 0,-1.16959 2.43755,-2.11846 5.44434,-2.11846 3.00721,0 5.44518,0.94887 5.44518,2.11846z"/>
     <path id="_101789928" class="fil2" d="M46.4005 155.889c0,0.403596 -0.840404,0.730256 -1.87714,0.730256 -1.03674,0 -1.87714,-0.32666 -1.87714,-0.730256 0,-0.403175 0.840404,-0.730256 1.87714,-0.730256 1.03674,0 1.87714,0.327081 1.87714,0.730256z"/>
    </g>
   </g>
   <g>
    <g>
     <g>
      <g>
       <path id="_253210952" class="fil9" d="M263.338 19.3881l-179.123 0c-4.09103,0 -7.40766,-3.31621 -7.40766,-7.40766l0 -1.0977c0,-4.09145 3.31663,-7.40808 7.40766,-7.40808l179.123 0c4.09145,0 7.40808,3.31663 7.40808,7.40808l0 1.0977c0,4.09145 -3.31663,7.40766 -7.40808,7.40766z"/>
       <path id="_253210880" class="fil9" d="M55.6252 11.4318c0,4.39415 -3.56215,7.9563 -7.95672,7.9563 -4.39457,0 -7.95672,-3.56215 -7.95672,-7.9563 0,-4.39457 3.56215,-7.95714 7.95672,-7.95714 4.39457,0 7.95672,3.56257 7.95672,7.95714z"/>
       <path id="_253210832" class="fil9" d="M74.1729 11.4318c0,4.39415 -3.56215,7.9563 -7.95672,7.9563 -4.39457,0 -7.95672,-3.56215 -7.95672,-7.9563 0,-4.39457 3.56215,-7.95714 7.95672,-7.95714 4.39457,0 7.95672,3.56257 7.95672,7.95714z"/>
      </g>
     </g>
     <polygon id="_253210688" class="fil9" points="281.777,3.07489 284.406,8.69538 290.564,9.45885 286.031,13.6962 287.208,19.7884 281.777,16.7866 276.347,19.7884 277.523,13.6962 272.99,9.45885 279.148,8.69538 "/>
     <g>
      <g>
       <path id="_253210616" class="fil2 str0" d="M263.338 16.6357l-179.123 0c-4.09103,0 -7.40766,-3.31663 -7.40766,-7.40766l0 -1.09812c0,-4.09103 3.31663,-7.40766 7.40766,-7.40766l179.123 0c4.09145,0 7.40808,3.31663 7.40808,7.40766l0 1.09812c0,4.09103 -3.31663,7.40766 -7.40808,7.40766z"/>
       <g>
        <path id="_253210544" class="fil12" d="M123.618 5.7483l0 0.29555c0.70419,0.0260656 1.38189,0.286721 1.38189,0.556205 0,0.199696 -0.23459,0.652059 -0.399812,0.652059 -0.121499,0 -0.399812,-0.243419 -0.982083,-0.260656l0 1.58159c0.747493,0.304378 1.65138,0.652059 1.65138,1.80777 0,1.1822 -0.747493,1.74723 -1.65138,1.84267l0 0.399812c0,0.156814 -0.0697884,0.217353 -0.208524,0.217353 -0.165222,0 -0.23501,-0.0605394 -0.23501,-0.217353l0 -0.390983c-1.12082,-0.0348942 -1.80735,-0.443535 -1.80735,-0.712599 0,-0.226182 0.303958,-0.669296 0.451943,-0.669296 0.139156,0 0.616745,0.425878 1.35541,0.434706l0 -1.73c-0.764309,-0.286721 -1.68585,-0.617165 -1.68585,-1.8166 0,-1.03421 0.755901,-1.58159 1.68585,-1.68627l0 -0.303958c0,-0.156393 0.0697884,-0.217353 0.217353,-0.217353 0.156393,0 0.226182,0.0609598 0.226182,0.217353zm-1.02539 1.92927l0 0c0,0.339273 0.242998,0.539389 0.58185,0.70419l0 -1.347c-0.417049,0.0954336 -0.58185,0.347681 -0.58185,0.64281zm1.02539 3.53777l0 0c0.321615,-0.0954336 0.556205,-0.347681 0.556205,-0.729836 0,-0.35651 -0.23459,-0.573863 -0.556205,-0.730256l0 1.46009z"/>
        <path id="_253210472" class="fil12" d="M127.938 9.83344l0 0.069368c0,0.260656 -0.0697884,0.365338 -0.226182,0.365338l-1.73 0c-0.155973,0 -0.225761,-0.104683 -0.225761,-0.365338l0 -0.069368c0,-0.261076 0.0697884,-0.373746 0.225761,-0.373746l1.73 0c0.156393,0 0.226182,0.11267 0.226182,0.373746z"/>
        <path id="_253210424" class="fil12" d="M131.206 7.46904c0,1.19103 -0.686533,1.44285 -1.26922,1.44285 -0.582271,0 -1.25998,-0.251827 -1.25998,-1.44285 0,-1.19061 0.668876,-1.44243 1.25998,-1.44243 0.582691,0 1.26922,0.251827 1.26922,1.44243zm-1.75564 0l0 0c0,0.365338 0.069368,0.817281 0.486417,0.817281 0.417469,0 0.495246,-0.451943 0.495246,-0.817281 0,-0.364918 -0.0605394,-0.799624 -0.495246,-0.799624 -0.417049,0 -0.486417,0.434706 -0.486417,0.799624zm4.16334 -1.3037l0 0c0,0.0260656 -0.0176573,0.0609598 -0.0437229,0.104262l-3.15519 5.71929c-0.069368,0.139156 -0.190867,0.217353 -0.365338,0.217353l-0.260235 0c-0.121499,0 -0.191288,-0.0433025 -0.191288,-0.104262 0,-0.0260656 0.0172369,-0.069368 0.0433025,-0.113091l3.14679 -5.71929c0.0781967,-0.139156 0.199696,-0.208524 0.373326,-0.208524l0.261076 0c0.121499,0 0.191288,0.0437229 0.191288,0.104262zm0.912294 4.62411l0 0c0,1.19944 -0.686533,1.44285 -1.2688,1.44285 -0.582271,0 -1.2604,-0.243419 -1.2604,-1.44285 0,-1.19061 0.669296,-1.44285 1.2604,-1.44285 0.582271,0 1.2688,0.252247 1.2688,1.44285zm-1.75564 0l0 0c0,0.364918 0.0697884,0.816861 0.486837,0.816861 0.417049,0 0.495246,-0.451943 0.495246,-0.816861 0,-0.356089 -0.0605394,-0.799624 -0.495246,-0.799624 -0.417049,0 -0.486837,0.443535 -0.486837,0.799624z"/>
       </g>
       <path id="_253210304" class="fil12" d="M115.789 12.8406l-15.6082 0c-2.0184,0 -3.65464,-1.63624 -3.65464,-3.65506 0,-2.01798 1.63624,-3.65464 3.65464,-3.65464l15.6082 0c2.0184,0 3.65464,1.63666 3.65464,3.65464 0,2.01882 -1.63624,3.65506 -3.65464,3.65506z"/>
       <path id="_253210232" class="fil2 str0" d="M55.6252 8.67899c0,4.39457 -3.56215,7.95672 -7.95672,7.95672 -4.39457,0 -7.95672,-3.56215 -7.95672,-7.95672 0,-4.39457 3.56215,-7.95672 7.95672,-7.95672 4.39457,0 7.95672,3.56215 7.95672,7.95672z"/>
       <path id="_253210184" class="fil2 str0" d="M74.1729 8.67899c0,4.39457 -3.56215,7.95672 -7.95672,7.95672 -4.39457,0 -7.95672,-3.56215 -7.95672,-7.95672 0,-4.39457 3.56215,-7.95672 7.95672,-7.95672 4.39457,0 7.95672,3.56215 7.95672,7.95672z"/>
      </g>
     </g>
     <polygon id="_253210064" class="fil1" points="281.777,0.322456 284.406,5.94253 290.564,6.70599 286.031,10.9433 287.208,17.0359 281.777,14.0342 276.347,17.0359 277.523,10.9433 272.99,6.70599 279.148,5.94253 "/>
    </g>
    <polygon id="_253209944" class="fil1" points="48.653,3.82995 43.6178,8.8173 48.653,13.9005 49.612,12.9415 45.5357,8.8173 49.612,4.78892 "/>
    <polygon id="_253209872" class="fil1" points="65.4948,13.9005 70.53,8.91316 65.4948,3.82995 64.5358,4.78892 68.6121,8.91316 64.5358,12.9415 "/>
    <path id="_253209800" class="fil1" d="M93.1579 13.2489l-3.20859 -3.17117c0.448159,-0.670978 0.691578,-1.47186 0.687794,-2.27611 -0.00966948,-2.27569 -1.89185,-4.1377 -4.19529,-4.15115 -1.08424,-0.00294289 -2.17689,0.433445 -2.95466,1.20238 -0.778603,0.769775 -1.2213,1.83468 -1.21499,2.92271 0.0100899,2.27569 1.89228,4.1377 4.19613,4.15073 0.00546536,0 0.0113511,0 0.0168165,0 0.812236,0 1.61817,-0.242157 2.29923,-0.690737l3.2069 3.17033 1.16664 -1.15697zm-3.76984 -5.4477l0 0c0.00420412,0.759685 -0.305219,1.50423 -0.849233,2.04236 -0.542332,0.536026 -1.29235,0.842506 -2.05918,0.842506 -0.00420412,0 -0.00840824,0 -0.0126124,0 -1.61733,-0.00924907 -2.93868,-1.31421 -2.94583,-2.91009 -0.00420412,-0.760105 0.305219,-1.50466 0.849233,-2.04236 0.544854,-0.538548 1.29613,-0.848392 2.07137,-0.842926 1.61733,0.00924907 2.93952,1.31463 2.94625,2.91051z"/>
    <path id="_253209752" class="fil3" d="M259.97 8.86523l-1.80441 1.81408c-0.213569,0.214831 -0.213569,0.562932 0,0.777342 0.213569,0.214831 0.559569,0.214831 0.773138,0l1.80441 -1.81366 1.80441 1.81366c0.213569,0.214831 0.559569,0.214831 0.773138,0 0.213569,-0.21441 0.213569,-0.562511 0,-0.777342l-1.80441 -1.81408 1.80441 -1.81408c0.213569,-0.214831 0.213569,-0.562511 0,-0.777763 -0.213569,-0.21441 -0.559569,-0.21441 -0.773138,0l-1.80441 1.8145 -1.80441 -1.8145c-0.213569,-0.21441 -0.559569,-0.21441 -0.773138,0 -0.213569,0.215251 -0.213569,0.562932 0,0.777763l1.80441 1.81408zm0.773138 5.86433l0 0c-3.2212,0 -5.83238,-2.62547 -5.83238,-5.86433 0,-3.23886 2.61118,-5.86433 5.83238,-5.86433 3.2212,0 5.83238,2.62547 5.83238,5.86433 0,3.23886 -2.61118,5.86433 -5.83238,5.86433z"/>
   </g>
   <g>
    <g>
     <g>
      <path id="_253209632" class="fil13" d="M135.01 156.155l-4.3685 7.5649c-0.886649,1.53577 0.323297,3.3881 2.21347,3.3881l42.9476 0c1.70898,0 2.91682,-1.53871 2.37995,-3.03075l-2.72217 -7.5649c-0.339273,-0.944246 -1.29823,-1.58117 -2.37911,-1.58117l-35.8578 0c-0.927429,0 -1.77834,0.470862 -2.21347,1.22382z"/>
      <g>
       <g>
        <path id="_253209560" class="fil0" d="M143.804 154.052c0,2.10669 -1.70813,3.8144 -3.81482,3.8144 -2.10711,0 -3.81482,-1.70771 -3.81482,-3.8144 0,-2.10711 1.70771,-3.81482 3.81482,-3.81482 2.10669,0 3.81482,1.70771 3.81482,3.81482z"/>
        <path id="_253209488" class="fil14" d="M142.283 154.052c0,1.2667 -1.02707,2.29377 -2.29377,2.29377 -1.26712,0 -2.29377,-1.02707 -2.29377,-2.29377 0,-1.26712 1.02665,-2.29419 2.29377,-2.29419 1.2667,0 2.29377,1.02707 2.29377,2.29419z"/>
        <path id="_253209416" class="fil15" d="M138.481 153.635l1.30832 -3.4499c0.0702088,-0.184981 0.247202,-0.307742 0.444796,-0.307742l4.54928 0c0.415367,0 0.631459,0.494825 0.349363,0.799624l-4.0965 4.42147c-0.341375,0.368281 -0.865629,0.504074 -1.3428,0.348101l-0.409481 -0.134111c-0.697043,-0.227443 -1.0628,-0.991752 -0.802987,-1.67744z"/>
        <path id="_253209368" class="fil1" d="M140.868 154.052c0,0.485156 -0.393085,0.878661 -0.878241,0.878661 -0.485156,0 -0.878661,-0.393506 -0.878661,-0.878661 0,-0.485576 0.393506,-0.879082 0.878661,-0.879082 0.485156,0 0.878241,0.393506 0.878241,0.879082z"/>
       </g>
       <g>
        <path id="_253209248" class="fil0" d="M165.901 154.052c0,2.10669 1.70771,3.8144 3.81482,3.8144 2.10711,0 3.81482,-1.70771 3.81482,-3.8144 0,-2.10711 -1.70771,-3.81482 -3.81482,-3.81482 -2.10711,0 -3.81482,1.70771 -3.81482,3.81482z"/>
        <path id="_253209176" class="fil14" d="M167.422 154.052c0,1.2667 1.02749,2.29377 2.29419,2.29377 1.2667,0 2.29419,-1.02707 2.29419,-2.29377 0,-1.26712 -1.02749,-2.29419 -2.29419,-2.29419 -1.2667,0 -2.29419,1.02707 -2.29419,2.29419z"/>
        <path id="_253209104" class="fil15" d="M171.224 153.635l-1.30832 -3.4499c-0.0702088,-0.184981 -0.247202,-0.307742 -0.444796,-0.307742l-4.54928 0c-0.415367,0 -0.631459,0.494825 -0.348942,0.799624l4.09608 4.42147c0.341375,0.368281 0.865629,0.504074 1.3428,0.348101l0.409902 -0.134111c0.696623,-0.227443 1.0628,-0.991752 0.802567,-1.67744z"/>
        <path id="_253209056" class="fil1" d="M168.838 154.052c0,0.485156 0.393085,0.878661 0.878241,0.878661 0.485156,0 0.878661,-0.393506 0.878661,-0.878661 0,-0.485576 -0.393506,-0.879082 -0.878661,-0.879082 -0.485156,0 -0.878241,0.393506 -0.878241,0.879082z"/>
       </g>
       <g>
        <path id="_253208960" class="fil0" d="M130.011 118.609c-0.219035,0 -0.427139,-0.127385 -0.519209,-0.340954 -1.29319,-2.99249 -3.44696,-7.87096 -3.83332,-8.4814 -0.578067,-0.419992 -4.93228,-1.97089 -8.87574,-3.25063 -0.232908,-0.0756742 -0.390563,-0.292607 -0.390563,-0.537287 0,-0.245521 0.157655,-0.462033 0.390563,-0.537707l7.00743 -2.27065c0.105523,-0.033633 0.216512,-0.0369963 0.323297,-0.00798783 0.669717,0.182459 6.58492,1.82123 7.85708,3.00384 1.01067,0.93878 3.99139,7.15499 4.57871,8.39101 0.133691,0.282517 0.0138736,0.619267 -0.268223,0.753379 -0.283358,0.133271 -0.619267,0.0138736 -0.752958,-0.268223 -1.32346,-2.78691 -3.66894,-7.43667 -4.32688,-8.04837 -0.787012,-0.731938 -4.77672,-2.0205 -7.22352,-2.6961l-5.19671 1.68417c3.61891,1.2007 7.36184,2.54265 7.76291,3.07784 0.4696,0.625573 3.4024,7.39043 3.98551,8.73995 0.123601,0.286301 -0.00840824,0.619688 -0.294709,0.742868 -0.0731517,0.0319513 -0.148826,0.0462453 -0.223659,0.0462453z"/>
       </g>
       <polygon id="_253208840" class="fil2 str6" points="128.479,115.747 134.859,111.785 184.051,114.193 185.18,117.277 "/>
       <path id="_253208768" class="fil1" d="M128.013 115.848l7.44508 24.5533c0.222818,0.735721 0.911874,1.23055 1.68039,1.20658l41.1785 -1.27385c0.765571,-0.0235431 1.42057,-0.556205 1.60135,-1.30033l5.26104 -21.7563 -57.1664 -1.4294z"/>
       <path id="_253208696" class="fil0" d="M178.217 153.945c-0.502813,-2.01083 -1.53829,-4.02292 -2.2883,-5.04158 -0.389302,-0.528038 -1.02707,-1.13427 -2.52205,-1.13427l-34.0984 0c-0.537287,0 -1.49877,-0.088707 -1.90615,-0.684851 -0.381734,-0.559569 -0.16312,-1.44285 0.0874457,-2.08566 1.00521,-2.57587 1.90279,-4.20622 1.91119,-4.22178l-1.33229 0.110989c-0.0374167,0.0689476 -0.597406,1.04809 -1.63246,3.70047 -0.507858,1.30328 -0.496927,2.35767 0.0327921,3.13333 0.526776,0.771036 1.50844,1.17799 2.83946,1.17799l1.82627 0 0 0.76515c0,0.474225 0.384677,0.859322 0.859322,0.859322l0.6529 0c0.474645,0 0.859322,-0.385098 0.859322,-0.859322l0 -0.76515 22.5463 0 0 0.76515c0,0.474225 0.384677,0.859322 0.859322,0.859322l0.6529 0c0.474645,0 0.858902,-0.385098 0.858902,-0.859322l0 -0.76515 4.98315 0c1.02875,0 1.37096,0.347681 1.61102,0.674341 0.708395,0.961062 1.65811,2.86553 2.1029,4.64513 0.100058,0.399392 0.0727313,0.705031 -0.08156,0.905988 -0.308162,0.404857 -1.08803,0.453625 -1.32009,0.45867 -7.90123,0.176994 -24.9414,0.0798783 -34.0963,0.0273268 -2.72133,-0.0163961 -4.78303,-0.0273268 -5.76469,-0.0273268 -1.38862,0 -2.42157,-0.39729 -2.90967,-1.11914 -0.4696,-0.694521 -0.456147,-1.71444 0.0386779,-2.94877 1.09055,-2.71628 4.29409,-10.805 4.29409,-10.805l-1.05103 -0.416208c0,0 -3.2027,8.08537 -4.29157,10.8004 -0.810134,2.01966 -0.407379,3.29183 0.0739925,4.00274 0.704611,1.0422 2.07011,1.61606 3.84551,1.61606 0.644071,0 1.75985,0.00504495 3.21447,0.0130328l0 0.739505c0,0.474645 0.384677,0.858902 0.859322,0.858902l0.6529 0c0.474645,0 0.859322,-0.384257 0.859322,-0.858902l0 -0.554524c0.0664251,-0.0672659 0.10216,-0.103001 0.168585,-0.170687 5.21732,0.0302697 12.9933,0.074413 20.1861,0.074413 1.95239,0 3.85938,-0.0033633 5.66253,-0.0113511l0 0.662149c0,0.474645 0.385098,0.858902 0.859743,0.858902l0.653321 0c0.473805,0 0.858902,-0.384257 0.858902,-0.858902l0 -0.675182c2.25803,-0.0159757 4.2798,-0.0412004 5.91142,-0.0773558 0.571761,-0.0134532 1.61775,-0.147565 2.19371,-0.903045 0.372906,-0.488099 0.466237,-1.11577 0.278733,-1.86579z"/>
       <g>
        <path id="_253208624" class="fil2" d="M183.531 116.817l-5.1038 21.0475c-0.139997,0.579748 -0.654582,0.998058 -1.25073,1.01572l-19.2288 0.594883c1.49162,-1.6106 2.97231,-3.23171 4.43913,-4.86543 0.107626,-0.120658 0.14252,-0.270325 0.0756742,-0.340113 -0.0702088,-0.0723109 -0.223239,-0.0319513 -0.342636,0.0912294 -1.58285,1.63414 -3.15225,3.28174 -4.70862,4.94068l-0.00294289 0.00294289c-0.0563352,0.0613802 -0.0933315,0.126964 -0.121079,0.191288l-16.975 0.524674c1.58369,-1.70856 3.15603,-3.42888 4.71408,-5.16224 0.113091,-0.125703 0.152189,-0.279995 0.0853437,-0.350203 -0.0697884,-0.0727313 -0.227023,-0.0269064 -0.352305,0.10174 -1.656,1.71318 -3.29897,3.43897 -4.92849,5.17654l-0.0033633 0.00378371c-0.074413,0.0802987 -0.12192,0.167744 -0.148826,0.250566l-1.5345 0.0470862c-0.590679,0.0222818 -1.13974,-0.369542 -1.31379,-0.943405l-3.38852 -11.172c0.875719,-0.949711 1.73967,-1.91035 2.58974,-2.88403 0.0613802,-0.0710497 0.0580169,-0.179516 -0.0109307,-0.247623 -0.0710497,-0.0710497 -0.185822,-0.0714701 -0.255611,-0.000840824 -0.842926,0.84629 -1.67156,1.70645 -2.4922,2.57376l-3.63993 -12.0015 -0.54107 0.164381 7.19746 23.7327c0.242578,0.798363 0.982924,1.34448 1.81324,1.34448 0.0201798,0 0.0395187,0 0.0592781,-0.000840824l39.0319 -1.207c0.850073,-0.026486 1.58327,-0.62221 1.78339,-1.44832l5.1038 -21.0467 -0.549899 -0.133691z"/>
        <path id="_253208552" class="fil2" d="M136.479 124.619c0.15261,-0.0950132 0.273268,-0.220296 0.396449,-0.342636 0.113511,-0.131589 0.229965,-0.260235 0.313627,-0.419151 0.0327921,-0.0626414 0.0319513,-0.141258 -0.00882866,-0.206002 -0.0609598,-0.0962744 -0.187924,-0.126544 -0.283778,-0.0668455 -0.15303,0.0950132 -0.273268,0.219876 -0.396449,0.342216 -0.113511,0.131169 -0.229545,0.260235 -0.313627,0.419151 -0.0327921,0.062221 -0.0323717,0.141258 0.00882866,0.206002 0.0609598,0.0962744 0.187924,0.126544 0.283778,0.0672659z"/>
        <path id="_253208480" class="fil2" d="M137.528 123.494c0.0664251,-0.00252247 0.100899,-0.0348942 0.137895,-0.0647435 0.0273268,-0.0386779 0.0575965,-0.0756742 0.055074,-0.142099 0,-0.00168165 0,-0.00420412 0,-0.00546536 -0.00840824,-0.15345 -0.139156,-0.272847 -0.292607,-0.267382 -0.0664251,0.00252247 -0.100899,0.0348942 -0.137895,0.0647435 -0.0273268,0.0395187 -0.0571761,0.0756742 -0.055074,0.142099 0,0.00210206 0,0.00546536 0,0.00714701 0.00840824,0.15303 0.139577,0.272007 0.292607,0.2657z"/>
        <path id="_253208408" class="fil2" d="M142.234 118.438c1.14773,-1.16833 2.28242,-2.34884 3.40408,-3.54197l0.00126124 -0.00168165c0.0950132,-0.10216 0.0874457,-0.263178 -0.0168165,-0.359452 -0.104262,-0.0962744 -0.26528,-0.0916499 -0.359873,0.0105103 -1.11199,1.20238 -2.21053,2.41653 -3.29561,3.64371 -0.0626414,0.0710497 -0.0588577,0.180777 0.0105103,0.248884 0.0718905,0.0706292 0.186663,0.0706292 0.256451,0z"/>
        <path id="_253208336" class="fil2" d="M141.641 119.099c0.0664251,-0.00294289 0.100899,-0.0353146 0.137895,-0.0655843 0.0273268,-0.0390983 0.0571761,-0.0756742 0.0554944,-0.142099 0,-0.00168165 -0.000420412,-0.00504495 -0.000420412,-0.00672659 -0.00882866,-0.15303 -0.139577,-0.272427 -0.292607,-0.266121 -0.0664251,0.00294289 -0.100479,0.0353146 -0.137475,0.0651639 -0.0277472,0.0390983 -0.0575965,0.0756742 -0.0554944,0.142099 0,0.00168165 0,0.00420412 0,0.00546536 0.00840824,0.15345 0.139156,0.272847 0.292607,0.267803z"/>
        <path id="_253208264" class="fil2" d="M141.017 119.769c0.0664251,-0.00294289 0.100479,-0.0353146 0.137475,-0.0655843 0.0273268,-0.0390983 0.0575965,-0.0756742 0.0554944,-0.142099 0,-0.00168165 -0.000420412,-0.00504495 -0.000420412,-0.00714701 -0.00840824,-0.15261 -0.139156,-0.271586 -0.292186,-0.2657 -0.0664251,0.00252247 -0.100899,0.0348942 -0.138316,0.0651639 -0.0273268,0.0390983 -0.0571761,0.0756742 -0.055074,0.14252 0,0.000840824 0,0.00378371 0.000420412,0.00504495 0.00798783,0.153871 0.138736,0.273268 0.292607,0.267803z"/>
        <path id="_253208192" class="fil2" d="M140.392 120.439c0.0664251,-0.00210206 0.100899,-0.0353146 0.137895,-0.0647435 0.0273268,-0.0395187 0.0571761,-0.0756742 0.0554944,-0.142099 0,-0.00210206 -0.000420412,-0.00546536 -0.000420412,-0.00714701 -0.00840824,-0.15303 -0.139577,-0.272007 -0.292607,-0.266121 -0.0664251,0.00294289 -0.100479,0.0353146 -0.137475,0.0655843 -0.0277472,0.0390983 -0.0575965,0.0748334 -0.0554944,0.141679 0,0.00126124 0,0.00420412 0,0.00588577 0.00840824,0.15303 0.139156,0.272847 0.292607,0.266962z"/>
        <path id="_253208120" class="fil2" d="M138.247 122.739c0.29555,-0.248464 0.558307,-0.526356 0.824428,-0.801306 0.256031,-0.285039 0.514584,-0.566716 0.741187,-0.878661 0.0529719,-0.0723109 0.0508699,-0.174471 -0.0105103,-0.246362 -0.0718905,-0.0849233 -0.198014,-0.0966948 -0.281676,-0.026486 -0.29555,0.248043 -0.558307,0.525936 -0.824428,0.801306 -0.256451,0.284199 -0.515005,0.566295 -0.741607,0.878241 -0.0525515,0.0718905 -0.0508699,0.174051 0.0105103,0.246362 0.0718905,0.0849233 0.198014,0.0971152 0.282097,0.0269064z"/>
        <path id="_253208048" class="fil2" d="M145.468 134.024c0.0449841,0.113511 0.207684,0.105523 0.363236,-0.0189185 0.248884,-0.198014 0.465396,-0.425457 0.684431,-0.650798 0.209365,-0.23417 0.421673,-0.466237 0.60161,-0.727733 0.0702088,-0.102581 0.100899,-0.215251 0.0706292,-0.291346 -0.0449841,-0.113511 -0.207684,-0.105523 -0.363657,0.0184981 -0.248464,0.197594 -0.464976,0.425457 -0.684011,0.650798 -0.209365,0.23417 -0.421253,0.465817 -0.601189,0.727733 -0.0710497,0.103001 -0.10174,0.215251 -0.0710497,0.291766z"/>
        <path id="_253207976" class="fil2" d="M147.732 131.968c0.0924907,-0.0311105 0.15303,-0.0916499 0.216512,-0.149246 0.0533923,-0.0672659 0.109728,-0.131589 0.133271,-0.225761 0.000840824,-0.00252247 0.00168165,-0.00630618 0.00210206,-0.00840824 0.0508699,-0.216933 -0.0811395,-0.335069 -0.294709,-0.26486 -0.0924907,0.0302697 -0.15303,0.090809 -0.216092,0.149246 -0.0533923,0.0668455 -0.109728,0.131169 -0.134111,0.226182 -0.000420412,0.00252247 -0.00126124,0.00672659 -0.00210206,0.00966948 -0.050029,0.215251 0.0819804,0.333387 0.295129,0.263178z"/>
        <path id="_253207904" class="fil2" d="M156.255 122.816c2.05371,-2.13822 4.09355,-4.29073 6.12036,-6.45417l0.00210206 -0.00252247c0.171949,-0.185402 0.226602,-0.413265 0.12234,-0.508699 -0.104262,-0.0962744 -0.327921,-0.0239635 -0.49987,0.161018 -2.01714,2.17311 -4.02082,4.35841 -6.01147,6.55591 -0.114773,0.127385 -0.154291,0.283358 -0.0861845,0.352726 0.0706292,0.0723109 0.228704,0.0256451 0.352726,-0.104262z"/>
        <path id="_253207832" class="fil2" d="M155.173 124.004c0.0924907,-0.0306901 0.15303,-0.0912294 0.216092,-0.148826 0.0533923,-0.0672659 0.109728,-0.132009 0.133691,-0.226602 0.000420412,-0.00294289 0.00168165,-0.00714701 0.00252247,-0.00966948 0.050029,-0.216092 -0.0819804,-0.333807 -0.295129,-0.263598 -0.0924907,0.0311105 -0.15303,0.0916499 -0.216092,0.149246 -0.0538128,0.0672659 -0.109728,0.132009 -0.133691,0.226602 -0.000420412,0.00168165 -0.00168165,0.00588577 -0.00210206,0.00756742 -0.0508699,0.216933 0.0811395,0.335069 0.294709,0.26528z"/>
        <path id="_253207760" class="fil2" d="M154.042 125.217c0.0924907,-0.0302697 0.15303,-0.090809 0.216092,-0.149246 0.0533923,-0.0672659 0.109728,-0.131589 0.133691,-0.226182 0.000420412,-0.00252247 0.00168165,-0.00756742 0.00252247,-0.00966948 0.050029,-0.216092 -0.0819804,-0.333387 -0.295129,-0.263178 -0.0924907,0.0306901 -0.15303,0.0916499 -0.216512,0.149246 -0.0533923,0.0668455 -0.109307,0.131589 -0.133691,0.225761 -0.000420412,0.00252247 -0.00126124,0.00630618 -0.00168165,0.00840824 -0.0508699,0.216092 0.0811395,0.335069 0.294709,0.26486z"/>
        <path id="_253207688" class="fil2" d="M152.91 126.431c0.0929111,-0.0306901 0.15345,-0.0912294 0.216092,-0.148826 0.0538128,-0.0672659 0.110148,-0.132009 0.134111,-0.226182 0.000420412,-0.00252247 0.00168165,-0.00756742 0.00252247,-0.0100899 0.0496086,-0.215671 -0.0824008,-0.333807 -0.295129,-0.262758 -0.0929111,0.0302697 -0.15303,0.090809 -0.216512,0.149246 -0.0533923,0.0668455 -0.109728,0.131169 -0.133691,0.225761 -0.000840824,0.00210206 -0.00126124,0.00630618 -0.00210206,0.00756742 -0.0504495,0.216933 0.0811395,0.335909 0.294709,0.26528z"/>
        <path id="_253207616" class="fil2" d="M149.027 130.595c0.507017,-0.474645 0.982083,-0.97956 1.45925,-1.48195 0.467498,-0.511221 0.93794,-1.02034 1.37643,-1.55889 0.101319,-0.125283 0.139997,-0.270325 0.0849233,-0.349363 -0.0647435,-0.0929111 -0.233749,-0.0588577 -0.37753,0.0760946 -0.507017,0.474645 -0.981662,0.97956 -1.45925,1.48195 -0.467498,0.511221 -0.93836,1.02034 -1.37643,1.55889 -0.101319,0.124862 -0.139997,0.270325 -0.0849233,0.349363 0.0643231,0.0924907 0.233749,0.0584373 0.37753,-0.0760946z"/>
        <path id="_253207544" class="fil2" d="M163.156 133.795c0.238794,-0.187083 0.445637,-0.404437 0.655002,-0.619688 0.199696,-0.223659 0.402334,-0.445216 0.572601,-0.696623 0.0664251,-0.0983764 0.0941723,-0.207684 0.0626414,-0.282937 -0.0462453,-0.11183 -0.205582,-0.107626 -0.355248,0.00966948 -0.239215,0.187504 -0.445637,0.404857 -0.655423,0.620108 -0.199275,0.22408 -0.401914,0.445637 -0.572181,0.697043 -0.0664251,0.0987969 -0.0945927,0.207263 -0.0630618,0.282517 0.0466658,0.11183 0.206002,0.107626 0.355669,-0.0100899z"/>
        <path id="_253207472" class="fil2" d="M164.97 131.85c0.0895478,-0.0277472 0.147144,-0.0853437 0.208104,-0.140418 0.0508699,-0.0643231 0.104683,-0.126124 0.125703,-0.217774 0.000420412,-0.00168165 0.00126124,-0.00546536 0.00168165,-0.00756742 0.0449841,-0.210626 -0.0866049,-0.328762 -0.294289,-0.2657 -0.0899682,0.0281676 -0.147985,0.0853437 -0.208524,0.141258 -0.0508699,0.0643231 -0.104262,0.125703 -0.125703,0.217353 -0.000420412,0.00252247 -0.00168165,0.00714701 -0.00210206,0.00966948 -0.0441433,0.209786 0.0878661,0.327501 0.295129,0.263178z"/>
        <path id="_253207400" class="fil2" d="M173.108 123.111c1.96248,-2.0411 3.91067,-4.09439 5.84667,-6.1603l0.00210206 -0.00294289c0.164381,-0.176573 0.212729,-0.39771 0.108046,-0.493564 -0.104262,-0.0962744 -0.321615,-0.0302697 -0.485576,0.146724 -1.92591,2.07473 -3.83836,4.16208 -5.73736,6.26162 -0.110148,0.121499 -0.144622,0.272427 -0.076515,0.342216 0.0706292,0.0718905 0.2245,0.0302697 0.342636,-0.0937519z"/>
        <path id="_253207328" class="fil2" d="M172.075 124.246c0.0903886,-0.0277472 0.147985,-0.0853437 0.208524,-0.140418 0.0508699,-0.0643231 0.104262,-0.126124 0.125283,-0.217774 0.000840824,-0.00294289 0.00210206,-0.00714701 0.00252247,-0.0100899 0.0441433,-0.208945 -0.0878661,-0.32666 -0.294709,-0.263178 -0.0895478,0.0281676 -0.147985,0.0861845 -0.208524,0.141258 -0.0508699,0.0639027 -0.104683,0.125283 -0.125703,0.217353 -0.000420412,0.00210206 -0.00168165,0.00588577 -0.00168165,0.00756742 -0.0445637,0.210206 0.0866049,0.329183 0.294289,0.26528z"/>
        <path id="_253207256" class="fil2" d="M170.995 125.404c0.0895478,-0.0277472 0.147565,-0.0853437 0.208104,-0.140838 0.0508699,-0.0643231 0.104262,-0.125703 0.125703,-0.217774 0.000840824,-0.00210206 0.00210206,-0.00714701 0.00252247,-0.00924907 0.0441433,-0.209365 -0.0882866,-0.327501 -0.295129,-0.263178 -0.0899682,0.0277472 -0.147565,0.0853437 -0.208104,0.140838 -0.0508699,0.0639027 -0.104683,0.125703 -0.126124,0.216933 0,0.00210206 -0.00126124,0.00588577 -0.00168165,0.00840824 -0.0449841,0.209786 0.0870253,0.328342 0.294709,0.26486z"/>
        <path id="_253207184" class="fil2" d="M169.914 126.563c0.0903886,-0.0281676 0.148405,-0.0857641 0.208945,-0.141258 0.0508699,-0.0643231 0.104262,-0.126124 0.125283,-0.217353 0.000420412,-0.00252247 0.00168165,-0.00672659 0.00210206,-0.00966948 0.0445637,-0.209365 -0.0874457,-0.327501 -0.294289,-0.263178 -0.0899682,0.0273268 -0.147985,0.0853437 -0.208945,0.140418 -0.0508699,0.0643231 -0.104262,0.126124 -0.125283,0.217774 -0.000840824,0.00168165 -0.00168165,0.00546536 -0.00168165,0.00756742 -0.0449841,0.210206 0.0866049,0.328762 0.293868,0.2657z"/>
        <path id="_253207136" class="fil2" d="M166.207 130.539c0.485576,-0.451523 0.93878,-0.933735 1.39535,-1.41301 0.446057,-0.488519 0.895058,-0.974095 1.31211,-1.48994 0.0966948,-0.119397 0.131169,-0.261076 0.0752538,-0.338852 -0.0651639,-0.0920703 -0.229965,-0.0626414 -0.367861,0.0660047 -0.485576,0.451943 -0.939201,0.933315 -1.39535,1.41301 -0.446057,0.488099 -0.895058,0.974095 -1.31211,1.49036 -0.0966948,0.118977 -0.131169,0.259815 -0.0756742,0.338432 0.0655843,0.0920703 0.230386,0.0626414 0.368281,-0.0660047z"/>
       </g>
       <polygon id="_253207016" class="fil6" points="142.967,155.619 144.972,148.522 166.232,148.522 167.391,155.619 "/>
       <g>
        <path id="_253206944" class="fil0" d="M141.922 162.626c0,2.47497 -2.00663,4.48201 -4.48243,4.48201 -2.47539,0 -4.48201,-2.00705 -4.48201,-4.48201 0,-2.47539 2.00663,-4.48285 4.48201,-4.48285 2.47581,0 4.48243,2.00747 4.48243,4.48285z"/>
        <path id="_253206872" class="fil14" d="M140.135 162.626c0,1.48784 -1.20658,2.69484 -2.69526,2.69484 -1.48826,0 -2.69526,-1.207 -2.69526,-2.69484 0,-1.4891 1.207,-2.69568 2.69526,-2.69568 1.48868,0 2.69526,1.20658 2.69526,2.69568z"/>
        <path id="_253206800" class="fil15" d="M135.668 162.135l1.53703 -4.05361c0.0824008,-0.217353 0.290505,-0.360714 0.522572,-0.360714l5.34554 0c0.487678,0 0.741607,0.58101 0.409902,0.93878l-4.8133 5.19461c-0.400653,0.433025 -1.01656,0.592781 -1.57739,0.409481l-0.481372 -0.157655c-0.818963,-0.267382 -1.24862,-1.16538 -0.942985,-1.97089z"/>
        <path id="_253206752" class="fil1" d="M138.472 162.626c0,0.569658 -0.462033,1.03169 -1.03211,1.03169 -0.570079,0 -1.03211,-0.462033 -1.03211,-1.03169 0,-0.570499 0.462033,-1.03253 1.03211,-1.03253 0.570079,0 1.03211,0.462033 1.03211,1.03253z"/>
       </g>
       <g>
        <path id="_253206632" class="fil0" d="M167.2 162.626c0,2.47497 2.00663,4.48201 4.48201,4.48201 2.47623,0 4.48285,-2.00705 4.48285,-4.48201 0,-2.47539 -2.00663,-4.48285 -4.48285,-4.48285 -2.47539,0 -4.48201,2.00747 -4.48201,4.48285z"/>
        <path id="_253206560" class="fil14" d="M168.988 162.626c0,1.48784 1.20616,2.69484 2.69442,2.69484 1.4891,0 2.69568,-1.207 2.69568,-2.69484 0,-1.4891 -1.20658,-2.69568 -2.69568,-2.69568 -1.48826,0 -2.69442,1.20658 -2.69442,2.69568z"/>
        <path id="_253206488" class="fil15" d="M173.454 162.135l-1.53661 -4.05361c-0.0824008,-0.217353 -0.290505,-0.360714 -0.522572,-0.360714l-5.34512 0c-0.488099,0 -0.741607,0.58101 -0.410322,0.93878l4.8133 5.19461c0.400653,0.433025 1.01698,0.592781 1.57781,0.409481l0.480952 -0.157655c0.818963,-0.267382 1.24862,-1.16538 0.942564,-1.97089z"/>
        <path id="_253206440" class="fil1" d="M170.651 162.626c0,0.569658 0.462033,1.03169 1.03169,1.03169 0.570499,0 1.03295,-0.462033 1.03295,-1.03169 0,-0.570499 -0.462453,-1.03253 -1.03295,-1.03253 -0.569658,0 -1.03169,0.462033 -1.03169,1.03253z"/>
       </g>
      </g>
     </g>
     <g>
      <polygon id="_253206272" class="fil6" points="142.834,107.642 142.834,115.631 161.7,116.123 161.7,106.824 "/>
      <polygon id="_253206200" class="fil9" points="161.7,106.824 161.7,116.123 170.692,116.41 170.692,108.45 "/>
      <polygon id="_253206128" class="fil11" points="142.283,106.13 162.139,105.32 162.139,107.917 142.283,108.743 "/>
      <polygon id="_253206080" class="fil1" points="162.139,107.917 171.345,109.494 171.345,107.031 162.139,105.32 "/>
     </g>
    </g>
    <g>
     <path id="_253205960" class="fil13" d="M126.51 162.551c0,0.86689 -12.2159,1.56982 -27.2856,1.56982 -15.0693,0 -27.2856,-0.702929 -27.2856,-1.56982 0,-0.86731 12.2163,-1.56982 27.2856,-1.56982 15.0697,0 27.2856,0.702509 27.2856,1.56982z"/>
    </g>
    <g>
     <g>
      <g>
       <path id="_253205840" class="fil16" d="M112.4 144.537c0.440592,4.38616 4.12677,10.8033 5.55743,14.3827 0.421253,1.05397 2.41695,0.464976 2.19161,-0.647435 -0.768513,-3.79086 -1.29571,-11.4672 -1.64717,-15.3829 -0.413265,-4.61024 -6.52185,-2.52668 -6.10186,1.6476z"/>
       <g>
        <path id="_253205792" class="fil17" d="M118.013 158.904c0,0 -0.426718,1.20406 0.300174,2.82895 -0.131589,0.0588577 -0.0323717,0.599928 0.205161,0.71428 0.279574,0.134952 2.30218,0.10174 2.7125,-0.219035 0.0903886,-0.15303 -0.0134532,-0.362816 -0.0134532,-0.362816 0,0 0.506176,0.192128 1.94483,-0.0790375 1.43823,-0.272007 2.21011,-0.689056 2.76925,-1.04304 0.169426,-0.107626 0.0521311,-0.491041 -0.138736,-0.429241 0,0 -0.123601,-0.998479 -0.95896,-0.944246 -1.7115,0.110568 -2.93826,-0.586055 -3.81398,-1.11535 -0.433445,-0.261917 -0.869833,-0.480111 -1.13806,-0.494825 -0.689476,-0.0365759 -1.58411,0.369122 -1.86873,1.14436z"/>
       </g>
       <path id="_253205696" class="fil0" d="M118.313 161.733c1.21499,0.139577 2.91009,-0.0458249 2.91009,-0.0458249 0,0 3.27837,-0.0567556 4.56946,-1.37307 0.190867,-0.0618006 0.308162,0.321615 0.138736,0.429241 -0.559148,0.353987 -1.33102,0.771036 -2.76925,1.04304 -1.43865,0.271166 -1.94483,0.0790375 -1.94483,0.0790375 0,0 0.103842,0.209786 0.0134532,0.362816 -0.410322,0.320774 -2.43293,0.353987 -2.7125,0.219035 -0.237533,-0.114352 -0.33675,-0.655423 -0.205161,-0.71428z"/>
      </g>
      <g>
       <path id="_253205576" class="fil0" d="M98.0519 113.151c0,0 6.30408,11.341 8.38722,15.9765 2.0823,4.63504 4.71787,16.0808 4.71787,16.0808 0,0 5.18368,1.09097 7.89954,-1.34111 0,0 -0.870253,-12.0772 -2.34968,-17.5013 -1.47901,-5.42374 -7.10034,-18.7374 -7.10034,-18.7374 -2.25719,-4.78009 -13.8118,0.742868 -11.5546,5.52253z"/>
       <path id="_253205528" class="fil14" d="M103.21 122.023c0.0731517,-0.0731517 0.503233,-2.06843 1.78045,-4.30334 1.11115,-1.94441 3.79464,-3.47092 4.08935,-3.23423 0.506176,0.407379 -3.49741,3.38095 -4.27265,5.52758 0,0 4.45679,-3.24222 4.76663,-2.81424 0.289664,0.399392 -4.61066,3.07363 -6.36378,4.82423z"/>
      </g>
     </g>
     <g>
      <path id="_253205384" class="fil11" d="M102.544 85.1961c1.04094,4.79396 2.6549,11.1809 6.21285,14.2991 3.55795,3.1182 11.2826,4.84861 11.65,4.84861 0.860163,0.198435 1.78171,-4.34202 1.10022,-4.86711 -0.681909,-0.524674 -6.75813,-2.9782 -7.8369,-4.0183 -1.92801,-1.8599 -1.10652,-13.1841 -3.28973,-15.6553 -2.1832,-2.47076 -9.04895,-0.19423 -7.83648,5.39305z"/>
      <path id="_253205336" class="fil16" d="M121.963 100.295c0,0 2.70787,2.25047 2.86889,2.86301 0.161018,0.612961 0.095854,1.62279 -0.125703,1.87924 -0.221557,0.256031 -1.87588,1.08508 -2.50776,0.650798 -0.6323,-0.434286 -1.50297,-1.42352 -1.50297,-1.42352l0.298493 -1.10779c0,0 -0.203479,0.759264 -1.84393,-0.269484 -1.64045,-1.02875 1.25451,-4.14695 2.81298,-2.59226z"/>
     </g>
     <g>
      <g>
       <path id="_253205216" class="fil16" d="M84.2245 141.282c-3.26618,2.96012 -6.2385,9.73759 -8.26783,13.0147 -0.597826,0.965687 1.06154,2.2202 1.82249,1.37811 2.59268,-2.86931 8.45491,-7.85456 11.3961,-10.4628 3.46294,-3.07111 -1.84183,-6.74719 -4.95077,-3.93001z"/>
       <g>
        <path id="_253205168" class="fil17" d="M76.322 153.967c0,0 -1.2419,0.298913 -2.208,1.79348 -0.121499,-0.0777763 -0.52047,0.300174 -0.487258,0.56125 0.0390983,0.308162 1.16959,1.98561 1.66231,2.15545 0.177414,-0.00840824 0.296811,-0.210206 0.296811,-0.210206 0,0 0.114773,0.529299 1.1267,1.58748 1.01235,1.05776 1.78213,1.47733 2.38374,1.75312 0.182459,0.083662 0.440172,-0.223659 0.284199,-0.350203 0,0 0.770195,-0.647855 0.269064,-1.31841 -1.02539,-1.37433 -1.11031,-2.78313 -1.14436,-3.80557 -0.0163961,-0.505756 -0.0714701,-0.991332 -0.205582,-1.22382 -0.344738,-0.597826 -1.17295,-1.12713 -1.97762,-0.942564z"/>
       </g>
       <path id="_253205072" class="fil0" d="M74.114 155.76c0.545275,1.09475 1.62447,2.41485 1.62447,2.41485 0,0 1.8351,2.71712 3.64203,3.08204 0.155973,0.126544 -0.10174,0.433865 -0.284199,0.350203 -0.60161,-0.27579 -1.37138,-0.695362 -2.38374,-1.75312 -1.01193,-1.05818 -1.1267,-1.58748 -1.1267,-1.58748 0,0 -0.119397,0.201798 -0.296811,0.210206 -0.492723,-0.169847 -1.62321,-1.84729 -1.66231,-2.15545 -0.0332126,-0.261076 0.365759,-0.639027 0.487258,-0.56125z"/>
      </g>
      <g>
       <path id="_253204952" class="fil0" d="M91.3753 108.897c0,0 0.873196,16.629 -0.993014,20.984 -1.86621,4.35547 -6.71693,11.4445 -6.71693,11.4445 0,0 1.33018,4.12677 6.24859,4.71871 0,0 7.41565,-5.22278 10.3253,-13.1333 2.90925,-7.91048 5.34848,-16.6168 4.17007,-23.0672 -0.661729,-3.62311 -12.0978,-6.24606 -13.034,-0.946768z"/>
       <path id="_253204904" class="fil7 str7" d="M93.543 108.743c0,0 0.105523,13.8475 -0.54065,19.2053 -0.627255,5.20008 -8.61887,14.7691 -8.61887,14.7691"/>
      </g>
     </g>
     <g>
      <g>
       <path id="_253204760" class="fil2" d="M109.991 80.1827c1.28142,2.54896 -1.00436,12.2235 -1.00436,16.4499 0,3.43729 0.564193,9.18432 1.07373,11.3532 0.135793,0.578487 -0.12192,1.17127 -0.633561,1.47228 -1.97762,1.16286 -4.61024,1.77456 -6.23387,1.93053 -6.25952,0.602451 -9.28312,-0.494405 -10.7058,-1.03337 -0.768093,-0.290925 -1.2276,-1.07163 -1.10652,-1.88429 0.31573,-2.11341 1.20742,-7.28364 0.444376,-12.0398 -0.99932,-6.22378 -2.62926,-14.6896 0.290505,-17.3025 2.92018,-2.61244 8.38764,-4.23902 8.38764,-4.23902 0,0 7.90585,2.14536 9.48786,5.29299z"/>
       <g>
        <path id="_253204688" class="fil0" d="M101.825 72.2398c0,0 -1.40418,-0.23417 -3.32966,-2.62674 -1.26208,-1.56856 -3.01814,-8.66427 2.54812,-9.73843 5.56584,-1.07373 7.2046,2.68812 7.45895,5.14795 0.254349,2.45983 -2.5065,4.48748 -3.75638,5.37539 -1.24989,0.88749 -2.92102,1.84183 -2.92102,1.84183z"/>
        <path id="_253204616" class="fil16" d="M100.468 69.3815c0,0 -0.169006,2.14957 -0.803408,3.82617 -0.634822,1.67702 -1.31505,2.19245 -2.11635,2.90463 -0.800885,0.712599 3.19808,4.96002 6.75813,6.03712 0,0 2.58217,-3.1451 1.39787,-4.89822 -1.18388,-1.75312 -2.12182,-1.90783 -1.69762,-4.24869 0.369542,-2.04068 0.589838,-3.17243 0.589838,-3.17243l-4.12845 -0.44858z"/>
        <g>
         <g>
          <path id="_253204568" class="fil18" d="M100.468 69.3815c0,0 -0.179096,1.58874 0.461192,2.26981 0.640288,0.681488 1.78675,2.32614 4.40045,2.13485 3.49068,-0.25477 2.13527,-5.79496 2.13527,-5.79496 0,0 0.364497,-2.13149 -0.000420412,-3.88167 -0.364918,-1.75102 -3.82155,-2.66752 -6.63621,-1.81072 0,0 -0.808032,0.769354 -0.497768,4.20917 0,0 -0.519209,-0.624732 -1.33607,-0.179936 -0.619267,0.337591 -0.684851,1.13721 -0.474225,1.89101 0.252247,0.903466 1.19481,1.68249 1.94777,1.16244z"/>
         </g>
         <path id="_253204472" class="fil0" d="M100.86 68.0954c0.223239,-0.150928 0.588997,-1.44832 0.199696,-2.6961 -0.348942,-1.1183 0.533923,-1.94567 1.15529,-2.01377 0.711758,-0.0777763 3.02066,0.577646 3.93338,0.465396 2.00116,-0.245521 3.55122,-0.8362 3.54828,-1.20574 -0.00294289,-0.369542 -1.46808,0.0138736 -1.46808,0.0138736 0,0 2.23071,-0.568818 2.02891,-2.43545 0,0 -1.67702,0.123181 -3.17495,-0.390142 -1.49835,-0.513323 -5.08446,-1.10905 -6.99187,0.307742 -1.2482,0.927009 -2.13443,3.94809 -0.481372,5.48428 0.753379,0.700407 0.824428,2.7579 1.25073,2.46992z"/>
        </g>
       </g>
       <path id="_253204352" class="fil19" d="M106.064 80.2247c0,0 -0.953495,18.9362 -0.743709,20.7192 0.209786,1.78213 -0.136634,8.62518 4.18604,9.94191 0,0 -1.93221,-9.87842 -1.65853,-15.8134 0.273688,-5.93454 -1.78381,-14.8477 -1.78381,-14.8477z"/>
      </g>
      <path id="_253204232" class="fil1" d="M104.683 75.9382c0,0 1.85948,5.92991 1.75648,13.6605 -0.103421,7.73012 -0.417049,23.5872 5.3035,23.2189 0,0 -2.41106,-9.74179 -2.26392,-13.2804 0.147144,-3.53861 2.06296,-16.5445 1.35919,-18.7731 -1.0195,-3.22792 -6.15525,-4.82591 -6.15525,-4.82591z"/>
      <g>
       <path id="_253204160" class="fil1" d="M98.1166 75.6595c0,0 3.85728,6.03544 5.09329,16.2645 0.588997,4.87678 -0.0714701,12.6048 -0.807612,17.5392 -0.847551,5.68061 -11.9675,5.67136 -12.6809,4.18184 -0.713019,-1.4891 2.4716,-10.9244 1.47901,-16.2863 -0.993014,-5.3611 -1.57907,-14.1145 -0.393506,-16.9939 1.18556,-2.8794 7.30971,-4.70525 7.30971,-4.70525z"/>
       <path id="_253204088" class="fil7 str8" d="M92.5382 85.91c0,0 1.8927,9.12757 1.65096,13.9589 -0.241737,4.83096 -1.78129,14.5925 -1.78129,14.5925"/>
       <path id="_253204040" class="fil11" d="M91.2059 81.0988c-0.237533,0.577226 -0.401073,1.40123 -0.503233,2.3871 1.04262,7.9605 5.52001,16.8825 12.3971,20.0852 0.227023,-2.58596 0.364077,-5.31611 0.32666,-7.76543 -4.60772,-4.58922 -8.13077,-10.5544 -10.8281,-16.4348 -0.625994,0.517948 -1.13217,1.09643 -1.39241,1.72789z"/>
      </g>
     </g>
     <g>
      <path id="_253203896" class="fil16" d="M118.14 101.884c0,0 3.42846,0.801726 3.84635,1.27805 0.41789,0.476327 1.11956,2.10584 1.03632,2.43461 -0.0832416,0.327921 -1.89648,1.04346 -2.65574,0.93836 -0.759264,-0.105944 -1.58579,-0.533503 -1.58579,-0.533503 0.113511,-0.404437 0.0828212,-0.767673 -0.338011,-0.898421 -0.444796,-0.138316 -0.91818,0.10174 -1.693,0.450682 -1.76573,0.794579 -0.699145,-4.36346 1.38988,-3.66978z"/>
      <path id="_253203848" class="fil1" d="M90.6514 85.2924c0.921964,5.10843 7.45517,12.7284 10.2505,15.1273 2.451,2.1029 14.5521,5.67136 15.0865,5.69953 1.2398,0.263598 2.8176,-4.19992 1.85444,-4.7763 -0.963164,-0.576805 -11.7497,-5.54019 -12.918,-6.83842 -1.16833,-1.29865 -5.45148,-12.8348 -8.49443,-15.4695 -3.04252,-2.6343 -6.81951,0.491041 -5.77899,6.25741z"/>
     </g>
    </g>
   </g>
   <g>
    <path id="_253203680" class="fil13" d="M254.132 162.002c0,0.86689 -12.2159,1.56982 -27.2856,1.56982 -15.0693,0 -27.2856,-0.702929 -27.2856,-1.56982 0,-0.86731 12.2163,-1.56982 27.2856,-1.56982 15.0697,0 27.2856,0.702509 27.2856,1.56982z"/>
    <g>
     <g>
      <g>
       <g>
        <g>
         <path id="_253203632" class="fil20" d="M231.871 155.856c0,0 1.13217,0.990911 1.32262,1.27175 0.186663,0.277472 0.916078,2.33749 0.916078,2.33749 -0.156393,0.297231 -0.663831,0.729415 -1.1389,0.787432l-0.91818 -1.18136c0,0 -0.4696,2.06548 -0.943825,2.73604 -0.573022,0.810134 -3.85896,1.74513 -4.34958,1.49919 0,0 -0.603712,-1.20364 0.425457,-1.86411 1.90194,-1.2192 1.94777,-3.77614 1.94777,-3.77614 -0.279995,-1.50676 1.37012,-2.65406 2.73856,-1.81029z"/>
        </g>
        <path id="_253203512" class="fil17" d="M226.669 163.072c0.967368,-0.167744 3.98383,-0.726472 4.39667,-1.75816 0.383836,-0.957699 0.638606,-2.57166 0.861004,-2.76085 0.221978,-0.188765 1.2667,-1.42478 1.2667,-1.42478l0.0390983 0.0689476c0.232908,0.44858 0.87698,2.26854 0.87698,2.26854 -0.156393,0.297231 -0.663831,0.729415 -1.1389,0.787432l-0.91818 -1.18136c0,0 -0.4696,2.06548 -0.943825,2.73604 -0.573022,0.810134 -3.85896,1.74513 -4.34958,1.49919 0,0 -0.0454045,-0.0903886 -0.0899682,-0.23501z"/>
        <path id="_253203464" class="fil17" d="M228.361 160.367l0.565875 0.120658c0,0 0.401914,-0.551581 0.365759,-1.04809l-0.553262 -0.192969c-0.0996377,-0.0353146 -0.209786,0.0168165 -0.246362,0.116034l-0.274109 0.747493c-0.0403596,0.110989 0.026486,0.232068 0.142099,0.256872z"/>
       </g>
       <path id="_253203344" class="fil16" d="M224.586 98.6581c-0.014294,-0.198014 -5.26272,23.1761 -5.07522,29.4608 0.117295,3.91572 7.43709,21.9342 9.62155,29.5474 0.418731,1.46093 2.69106,-0.253088 2.51322,-1.76951 -0.8568,-7.28869 -0.802567,-11.1224 -4.01998,-26.9619 -0.501131,-2.46614 8.35149,-24.5765 7.65066,-29.7568 -0.700827,-5.1799 -7.92561,-7.99918 -10.6902,-0.52005z"/>
       <path id="_253203296" class="fil21" d="M235.276 99.1782c-0.700827,-5.1799 -7.92561,-7.99918 -10.6902,-0.52005 -0.0130328,-0.188345 -4.76453,20.9563 -5.06471,28.4257 2.36061,-1.79138 5.49941,-0.847551 8.21317,0.578908 1.0443,-5.39305 8.17323,-23.8147 7.54177,-28.4846z"/>
      </g>
      <g>
       <g>
        <g>
         <path id="_253203200" class="fil20" d="M239.414 157.376c0,0 0.705872,1.3285 0.783228,1.65895 0.0769354,0.325399 0.0260656,2.51028 0.0260656,2.51028 -0.251827,0.221978 -0.880343,0.445637 -1.34448,0.330864l-0.43849 -1.43024c0,0 -0.675602,1.39703 -1.35751,1.85486 -0.823167,0.553683 -3.75764,1.23265 -4.25079,0.990071 0,0 -0.676864,-1.30832 0.412004,-1.86663 2.72511,-1.39787 2.96643,-3.32924 2.96643,-3.32924 0.273268,-1.5076 2.2244,-1.99444 3.20354,-0.718905z"/>
        </g>
        <path id="_253203080" class="fil17" d="M232.763 163.133c0.818963,-0.0912294 3.28258,-0.402755 3.95818,-0.941723 0.806771,-0.64281 1.51054,-2.17647 1.78549,-2.27443 0.27495,-0.097956 1.69006,-0.881184 1.69006,-0.881184l0.0130328 0.08156c0.0575965,0.508278 0.0130328,2.42872 0.0130328,2.42872 -0.251827,0.221978 -0.880343,0.445637 -1.34448,0.330864l-0.43849 -1.43024c0,0 -0.675602,1.39703 -1.35751,1.85486 -0.823167,0.553683 -3.75764,1.23265 -4.25079,0.990071 0,0 -0.0306901,-0.0592781 -0.0685272,-0.158495z"/>
        <path id="_253203032" class="fil17" d="M234.663 160.546l0.486417 0.314048c0,0 0.57134,-0.372906 0.713439,-0.850073l-0.447739 -0.37753c-0.08156,-0.0681068 -0.202218,-0.0584373 -0.271586,0.021441l-0.522152 0.601189c-0.0773558,0.0891274 -0.0580169,0.226602 0.0416208,0.290925z"/>
       </g>
       <path id="_253202912" class="fil16" d="M229.768 100.165c-0.04078,2.03479 0.272007,23.7361 2.15167,29.6765 1.17127,3.70089 3.629,21.4688 4.46225,27.5391 0.303538,2.21473 2.70661,2.21473 2.88151,0.0996377 0.648696,-7.86213 3.18967,-18.7962 0.304799,-28.4022 -0.721007,-2.40055 2.62001,-27.1759 0.55032,-31.8941 -2.07053,-4.71871 -10.1979,-4.54171 -10.3505,2.98114z"/>
       <path id="_253202864" class="fil21" d="M239.466 127.47c0.0668455,-6.12919 2.48884,-26.0996 0.65248,-30.2861 -2.07053,-4.71871 -10.1979,-4.54171 -10.3505,2.98114 -0.0378371,1.87336 0.225761,20.4026 1.73378,27.9713 2.34716,-1.3264 5.31401,-1.43655 7.96429,-0.666353z"/>
      </g>
      <g>
       <path id="_253202744" class="fil0" d="M224.818 96.1146l-0.233329 2.13275c0,0 -3.8165,9.67663 -5.46157,25.3836 4.07127,-1.12965 11.7598,2.6322 23.163,1.03085 0,0 4.5106,-20.1138 -3.33597,-29.0623 -7.84699,-8.94805 -13.7193,-4.22052 -14.1322,0.515005z"/>
       <path id="_253202672" class="fil0" d="M224.832 98.1662c0,0 -0.304378,3.01183 4.90747,3.54323 5.21185,0.531401 10.38,-3.23255 10.2496,-4.33991 -0.130328,-1.10695 -15.1571,0.796681 -15.1571,0.796681z"/>
       <path id="_253202624" class="fil7 str9" d="M237.696 96.6742c0,0 5.96691,9.92887 2.29587,27.645"/>
      </g>
     </g>
     <g>
      <g>
       <path id="_253202480" class="fil16" d="M203.607 90.4349c-0.0399392,-0.00420412 -2.20212,-0.132009 -2.57629,-0.0302697 -0.347681,0.0945927 -1.23097,0.522993 -1.48826,0.65248 -0.597406,0.299754 -0.0151348,0.728574 0.437229,0.689056 0.641129,-0.0554944 0.876559,-0.171108 1.14394,-0.129907 0.147985,0.0222818 0.272847,0.0580169 0.38804,0.0987969 -0.236692,0.200957 -1.21962,0.891694 -1.97426,1.1822 -0.424196,0.16312 -0.808032,0.276211 -1.42225,0.472964 -0.274109,0.0874457 -0.229125,0.449421 0.0832416,0.507858 0.220296,0.0403596 0.978299,0.0437229 1.64507,-0.208104 0.264019,-0.100479 0.530981,-0.211047 0.77482,-0.324138 0.00546536,0.0243839 -0.566295,0.35735 -0.843347,0.483894 -0.402755,0.18372 -0.808453,0.258553 -1.39661,0.474645 -0.270325,0.0996377 -0.197173,0.414526 0.117715,0.45909 0.0849233,0.0117715 0.2451,0.0252247 0.446898,0.0231227 -0.110989,0.143361 -0.0327921,0.36744 0.217353,0.400232 0.117295,0.0155553 0.361554,-0.00588577 0.666353,-0.0542332 0.0369963,0.0748334 0.113932,0.151769 0.236692,0.15261 2.20044,0.00630618 3.51296,-1.19439 4.71787,-1.47481 1.9196,-1.93768 0.260235,-3.10096 -1.17421,-3.37549z"/>
       <path id="_253202432" class="fil11" d="M229.197 74.7585c-1.49457,-0.848392 -4.04689,-1.12713 -6.05856,1.73798 -2.01083,2.86511 -2.89748,9.60558 -5.02981,11.8863 -1.27175,1.36003 -12.8171,1.75312 -13.6382,2.16554 -0.534764,0.268223 -0.215671,2.83694 -0.04078,3.31369 0.36702,0.998479 12.8663,1.53156 16.2666,0.191708 3.39987,-1.34027 11.711,-17.4736 8.50073,-19.2952z"/>
      </g>
      <path id="_253202312" class="fil0" d="M224.364 61.9982c0.0916499,-1.04514 0.0866049,-2.78355 1.33271,-4.29157 1.24568,-1.50844 6.10354,-3.01898 8.64914,-1.25661 3.12913,2.16722 2.10711,4.19613 6.00853,5.76974 3.90142,1.5736 2.72175,3.31999 1.60682,5.10254 -1.11535,1.78255 -0.722689,2.07768 1.0813,3.94641 1.80399,1.86873 4.19613,6.5248 0,9.18012 -4.19613,2.65574 -13.2833,0.91818 -16.9237,-2.59016 -3.63951,-3.50792 0.655843,-5.81808 -0.354407,-7.90879 -1.01025,-2.09113 -2.19623,-1.62994 -2.19623,-3.85182 0,-1.70225 0.654582,-2.488 0.79584,-4.09986z"/>
      <path id="_253202240" class="fil1" d="M232.237 72.2718c0,0 -8.27707,1.37979 -8.55329,3.90563 -0.115613,1.0586 1.3264,3.19303 0.953915,4.27727 -0.544434,1.58495 -1.41132,2.50482 0.188345,6.2675 1.29277,3.04168 -0.926588,9.33693 -0.859322,10.0865 0.252247,2.80163 4.69474,3.31453 6.51723,3.27081 2.59731,-0.062221 10.0685,-1.73378 10.0685,-3.37044 0,-1.41931 -3.45999,-4.46814 -3.79548,-6.90022 -0.335069,-2.43208 5.99466,-12.1793 4.73805,-14.302 -2.43166,-4.10953 -9.2579,-3.23507 -9.2579,-3.23507z"/>
      <g>
       <path id="_253202168" class="fil16" d="M240.178 98.3685c-0.0399392,0.00798783 -2.1378,0.547797 -2.46319,0.759685 -0.301436,0.195912 -1.01193,0.874037 -1.21709,1.07583 -0.476747,0.468339 0.208524,0.698305 0.626835,0.522572 0.593622,-0.249304 0.782387,-0.431343 1.04935,-0.473805 0.147985,-0.0239635 0.277892,-0.0277472 0.400232,-0.0243839 -0.163961,0.263598 -0.888751,1.22214 -1.51811,1.72916 -0.353987,0.28546 -0.684851,0.50996 -1.20995,0.884968 -0.23417,0.167744 -0.0807191,0.497768 0.23459,0.457829 0.222818,-0.028588 0.945087,-0.257292 1.50255,-0.700827 0.221137,-0.176573 0.441012,-0.362816 0.639027,-0.545275 0.012192,0.0210206 -0.430082,0.513744 -0.655423,0.718484 -0.327081,0.298072 -0.690317,0.493143 -1.1843,0.879082 -0.226602,0.177414 -0.0605394,0.454886 0.252247,0.401073 0.0849233,-0.0147144 0.241317,-0.0508699 0.432604,-0.114773 -0.0613802,0.170687 0.08156,0.360293 0.329183,0.314889 0.116034,-0.021441 0.342216,-0.116875 0.618426,-0.255611 0.0571761,0.0596985 0.151769,0.100058 0.272007,0.0723109 1.3037,-0.298913 3.53525,-2.17101 4.041,-2.84619 1.23475,-2.43208 -0.701248,-3.03243 -2.14999,-2.85502z"/>
       <path id="_253202120" class="fil1" d="M238.37 73.4712c-1.33733,1.08004 -2.53256,3.35195 -0.604553,6.27381 1.92843,2.92229 7.41943,5.95976 8.75929,8.78031 0.799204,1.68207 -6.61939,8.8955 -6.63326,9.81452 -0.014294,0.919021 1.39535,3.15856 1.93558,3.42089 0.956858,0.463715 11.3772,-9.65056 11.3772,-13.3056 0,-3.65464 -11.9628,-17.3025 -14.8342,-14.9839z"/>
      </g>
      <path id="_253202000" class="fil16" d="M233.498 65.8874c0,0 0.169006,2.14957 0.803828,3.82659 0.634402,1.67702 1.31505,2.19203 2.11635,2.90463 0.800465,0.712599 -3.19808,4.96002 -6.75813,6.03712 0,0 -2.58217,-3.14552 -1.39787,-4.89864 1.18388,-1.7527 2.12182,-1.90741 1.6972,-4.24869 -0.369122,-2.04026 -0.590259,-3.17201 -0.590259,-3.17201l4.12887 -0.449z"/>
      <g>
       <g>
        <path id="_253201952" class="fil2" d="M227.998 66.9754c0,1.00521 -0.412424,1.82375 -0.920703,1.82375 -0.507437,0 -0.920703,-0.818542 -0.920703,-1.82375 0,-0.680647 0.191288,-1.26796 0.471702,-1.58117 0.0861845,-0.11183 -0.0239635,-0.197173 -0.110568,-0.0853437 -0.300595,0.342216 -0.499029,0.951393 -0.499029,1.66651 0,1.10022 0.464976,1.96164 1.0586,1.96164 0.593622,0 1.0586,-0.861425 1.0586,-1.96164 0,-0.575965 -0.088707,-1.0153 -0.29597,-1.37096 -0.0218614,0.0260656 -0.0794579,0.0718905 -0.104262,0.0996377 0.169426,0.330444 0.262337,0.76515 0.262337,1.27133z"/>
       </g>
       <g>
        <path id="_253201832" class="fil18" d="M233.498 65.8874c0,0 -0.576805,4.37187 -4.68423,4.06244 -2.06254,-0.155553 -3.11736,-4.38868 -2.31227,-5.45275 0,0 -0.364497,-2.13107 0.000420412,-3.88167 0.364918,-1.7506 3.82155,-2.66752 6.63579,-1.81029 0,0 0.808453,0.768934 0.497768,4.20917 0,0 0.519629,-0.624732 1.33649,-0.179936 0.619688,0.337591 0.684851,1.13721 0.474225,1.89059 -0.251827,0.903886 -1.19481,1.68249 -1.94819,1.16244z"/>
        <g>
         <path id="_253201784" class="fil2" d="M235.098 66.9754c0,1.00521 -0.413265,1.82375 -0.920703,1.82375 -0.507858,0 -0.920703,-0.818542 -0.920703,-1.82375 0,-0.680647 0.191288,-1.26796 0.471702,-1.58117 0.0861845,-0.11183 -0.0239635,-0.197173 -0.110568,-0.0853437 -0.300595,0.342216 -0.499029,0.951393 -0.499029,1.66651 0,1.10022 0.464976,1.96164 1.0586,1.96164 0.593622,0 1.0586,-0.861425 1.0586,-1.96164 0,-0.575965 -0.088707,-1.0153 -0.29597,-1.37096 -0.0218614,0.0260656 -0.0794579,0.0718905 -0.104262,0.0996377 0.169426,0.330444 0.262337,0.76515 0.262337,1.27133z"/>
        </g>
       </g>
      </g>
      <path id="_253201640" class="fil0" d="M232.237 59.12c-3.423,0.361975 -4.94152,3.58443 -7.44886,3.58654 -1.55174,-2.6961 3.19009,-9.53957 8.78409,-4.22724 2.56493,2.43629 0.251827,4.30334 0.251827,4.30334l-0.57134 1.96963c0,0 0.0496086,-1.47859 -0.475907,-2.04573 -1.5488,-1.66904 -0.539809,-3.58654 -0.539809,-3.58654z"/>
     </g>
    </g>
   </g>
   <g>
    <path id="_253201472" class="fil13" d="M209.84 40.9729l-35.1742 -8.65713 -4.44838 -1.09475c-1.73168,-0.426298 -3.48101,0.631879 -3.90731,2.36356l-3.49405 14.1977 -0.198855 0.808032 -1.59841 6.49327c-0.425878,1.73126 0.6323,3.48059 2.36398,3.90689l38.9928 9.59675c1.73168,0.426298 3.48101,-0.631879 3.90689,-2.36356l0.466658 -1.89606 1.33018 -5.40524 1.9402 -7.88189 1.7094 -6.94647c0.340534,-1.38316 -0.504915,-2.78103 -1.88891,-3.12114z"/>
    <g>
     <path id="_253201400" class="fil9" d="M201.747 67.3021l-38.9924 -9.59675c-1.73168,-0.426298 -2.79028,-2.17563 -2.36398,-3.90689l5.29131 -21.499c0.425878,-1.73168 2.17521,-2.79028 3.90689,-2.36398l38.9924 9.59675c1.7321,0.425878 2.79028,2.17521 2.3644,3.90731l-5.29173 21.499c-0.425878,1.73126 -2.17521,2.78986 -3.90689,2.36356z"/>
     <polygon id="_253201328" class="fil1" points="206.121,63.0421 160.857,51.902 162.187,46.4967 207.451,57.6368 "/>
     <path id="_253201256" class="fil1" d="M181.814 39.0315l-13.6777 -3.36582c-0.694941,-0.171108 -1.11956,-0.873196 -0.94887,-1.56814l0.0462453 -0.186243c0.170687,-0.694941 0.872776,-1.11956 1.56772,-0.94845l13.6773 3.36624c0.695362,0.171108 1.11998,0.872776 0.94887,1.56814l-0.0458249 0.186243c-0.170687,0.694521 -0.873196,1.11956 -1.56772,0.948029z"/>
     <path id="_253201184" class="fil1" d="M193.807 44.85l-26.9644 -6.63663c-0.347681,-0.0853437 -0.559989,-0.436388 -0.474645,-0.783648l0.0231227 -0.0933315c0.0853437,-0.347681 0.436388,-0.559569 0.784069,-0.474225l26.964 6.63621c0.347681,0.0857641 0.560409,0.436388 0.475066,0.784069l-0.0235431 0.0929111c-0.0853437,0.347681 -0.436388,0.559989 -0.783648,0.474645z"/>
     <g>
      <path id="_253201112" class="fil12" d="M188.28 49.9782l-0.879082 -0.216092c-0.488519,-0.120658 -0.787012,-0.613802 -0.666774,-1.10232l0.0323717 -0.131169c0.119817,-0.488939 0.613381,-0.787012 1.10232,-0.666774l0.879082 0.216092c0.488099,0.120238 0.787012,0.613802 0.666353,1.10232l-0.0319513 0.131169c-0.120658,0.488519 -0.614222,0.787012 -1.10232,0.666774z"/>
      <path id="_253201040" class="fil12" d="M191.65 50.8077l-0.879082 -0.216092c-0.488939,-0.120238 -0.787432,-0.613802 -0.666774,-1.10232l0.0319513 -0.131169c0.120658,-0.488519 0.614222,-0.787012 1.10232,-0.667194l0.879082 0.216512c0.488519,0.120238 0.787012,0.613802 0.666774,1.10232l-0.0323717 0.131169c-0.119817,0.488519 -0.614222,0.787012 -1.1019,0.666774z"/>
      <path id="_253200992" class="fil12" d="M195.02 51.6371l-0.878661 -0.216512c-0.488519,-0.119817 -0.787432,-0.613381 -0.666774,-1.1019l0.0323717 -0.131169c0.120238,-0.488519 0.613802,-0.787432 1.10232,-0.666774l0.878661 0.216092c0.488519,0.120238 0.787012,0.613802 0.667194,1.10232l-0.0327921 0.131169c-0.119817,0.488519 -0.613381,0.787012 -1.10232,0.666774z"/>
     </g>
     <g>
      <path id="_253200872" class="fil0" d="M202.985 41.6662c-0.39771,-0.695362 -1.06617,-1.23433 -1.90531,-1.44117 -1.62657,-0.399812 -3.26913,0.594042 -3.66978,2.2202 -0.399812,1.62615 0.593622,3.26913 2.2202,3.66936 0.839143,0.206422 1.68123,0.0395187 2.35641,-0.391824 -0.372906,-0.652059 -0.507437,-1.44159 -0.314048,-2.2286 0.19381,-0.787012 0.679806,-1.42352 1.31253,-1.82795z"/>
      <path id="_253200776" class="fil0" d="M205.342 41.2744c-0.839143,-0.206843 -1.68165,-0.0399392 -2.35683,0.391824 0.373326,0.652059 0.508278,1.44159 0.314468,2.2286 -0.19381,0.786591 -0.679806,1.42352 -1.31295,1.82795 0.39813,0.695362 1.06659,1.23433 1.90573,1.44075 1.62657,0.400232 3.26955,-0.593622 3.66936,-2.21978 0.400232,-1.62657 -0.593202,-3.26955 -2.21978,-3.66936z"/>
     </g>
    </g>
   </g>
  </g>
 </g>
</svg>
