<?xml version="1.0" encoding="utf-8"?>
<!-- Generator: Adobe Illustrator 23.0.2, SVG Export Plug-In . SVG Version: 6.00 Build 0)  -->
<svg version="1.1" id="Layer_1" xmlns="http://www.w3.org/2000/svg" xmlns:xlink="http://www.w3.org/1999/xlink" x="0px" y="0px"
	 viewBox="0 0 2258 1918" style="enable-background:new 0 0 2258 1918;" xml:space="preserve">
<style type="text/css">
	.st0{opacity:0.82;}
	.st1{fill:url(#SVGID_1_);}
	.st2{fill:url(#SVGID_2_);}
	.st3{fill:url(#SVGID_3_);}
	.st4{fill:url(#SVGID_4_);}
	.st5{fill:url(#SVGID_5_);}
	.st6{fill:url(#SVGID_6_);}
	.st7{fill:url(#SVGID_7_);}
	.st8{fill:url(#SVGID_8_);}
	.st9{fill:url(#SVGID_9_);}
	.st10{fill:url(#SVGID_10_);}
	.st11{opacity:0.25;fill:#A8A8A8;}
	.st12{fill:url(#SVGID_11_);}
	.st13{fill:url(#SVGID_12_);}
	.st14{fill:#4FBFDD;}
	.st15{fill:url(#SVGID_13_);}
	.st16{fill:url(#SVGID_14_);}
	.st17{fill:url(#SVGID_15_);}
	.st18{fill:url(#SVGID_16_);}
	.st19{fill:url(#SVGID_17_);}
	.st20{fill:url(#SVGID_18_);}
	.st21{fill:url(#SVGID_19_);}
	.st22{fill:url(#SVGID_20_);}
	.st23{opacity:0.74;fill:#FFFFFF;}
	.st24{fill:url(#SVGID_21_);}
	.st25{fill:url(#SVGID_22_);}
	.st26{fill:url(#SVGID_23_);}
	.st27{fill:url(#SVGID_24_);}
	.st28{opacity:0.8;}
	.st29{fill:url(#SVGID_25_);}
	.st30{fill:url(#SVGID_26_);}
	.st31{fill:url(#SVGID_27_);}
	.st32{fill:url(#SVGID_28_);}
	.st33{fill:url(#SVGID_29_);}
	.st34{fill:url(#SVGID_30_);}
	.st35{fill:url(#SVGID_31_);}
	.st36{fill:none;}
	.st37{fill:url(#SVGID_32_);}
	.st38{fill:#FFFFFF;}
	.st39{opacity:0.76;}
	.st40{fill:url(#SVGID_33_);}
	.st41{fill:url(#SVGID_34_);}
	.st42{fill:url(#SVGID_35_);}
	.st43{fill:url(#SVGID_36_);}
	.st44{fill:url(#SVGID_37_);}
	.st45{fill:url(#SVGID_38_);}
	.st46{fill:url(#SVGID_39_);}
	.st47{opacity:0.79;}
	.st48{fill:#878787;}
	.st49{fill:url(#SVGID_40_);}
	.st50{fill:url(#SVGID_41_);}
	.st51{fill:url(#SVGID_42_);}
	.st52{fill:url(#SVGID_43_);}
	.st53{fill:url(#SVGID_44_);}
	.st54{fill:url(#SVGID_45_);}
	.st55{fill:url(#SVGID_46_);}
	.st56{fill:#62CFE8;}
	.st57{fill:url(#SVGID_47_);}
	.st58{fill:#444444;}
	.st59{fill:url(#SVGID_48_);}
	.st60{fill:url(#SVGID_49_);}
	.st61{fill:url(#SVGID_50_);}
	.st62{fill:url(#SVGID_51_);}
	.st63{fill:url(#SVGID_52_);}
	.st64{fill:#45B0C9;}
	.st65{fill:url(#SVGID_53_);}
	.st66{fill:url(#SVGID_54_);}
	.st67{fill:url(#SVGID_55_);}
	.st68{fill:url(#SVGID_56_);}
	.st69{fill:url(#SVGID_57_);}
	.st70{fill:url(#SVGID_58_);}
	.st71{fill:url(#SVGID_59_);}
	.st72{fill:url(#SVGID_60_);}
	.st73{fill:url(#SVGID_61_);}
	.st74{fill:url(#SVGID_62_);}
	.st75{fill:url(#SVGID_63_);}
	.st76{fill:url(#SVGID_64_);}
	.st77{fill:url(#SVGID_65_);}
	.st78{fill:url(#SVGID_66_);}
	.st79{fill:url(#SVGID_67_);}
	.st80{fill:url(#SVGID_68_);}
	.st81{fill:url(#SVGID_69_);}
	.st82{fill:url(#SVGID_70_);}
	.st83{fill:url(#SVGID_71_);}
	.st84{fill:url(#SVGID_72_);}
	.st85{fill:url(#SVGID_73_);}
	.st86{fill:url(#SVGID_74_);}
	.st87{fill:url(#SVGID_75_);}
	.st88{fill:url(#SVGID_76_);}
</style>
<g class="st0">
	<linearGradient id="SVGID_1_" gradientUnits="userSpaceOnUse" x1="1458.1537" y1="1642.2855" x2="1560.887" y2="1642.2855">
		<stop  offset="0" style="stop-color:#76A4FF"/>
		<stop  offset="0.3648" style="stop-color:#6C99F8"/>
		<stop  offset="1" style="stop-color:#517CE5"/>
	</linearGradient>
	<path class="st1" d="M1462.9,1613.8h93.3c2.6,0,4.7,2.1,4.7,4.7v47.6c0,2.6-2.1,4.7-4.7,4.7h-93.3c-2.6,0-4.7-2.1-4.7-4.7v-47.6
		C1458.2,1615.9,1460.3,1613.8,1462.9,1613.8z"/>
	<linearGradient id="SVGID_2_" gradientUnits="userSpaceOnUse" x1="1458.1537" y1="1627.2766" x2="1560.887" y2="1627.2766">
		<stop  offset="0" style="stop-color:#212121"/>
		<stop  offset="1" style="stop-color:#686868"/>
	</linearGradient>
	<rect x="1458.2" y="1623" class="st2" width="102.7" height="8.6"/>
	<linearGradient id="SVGID_3_" gradientUnits="userSpaceOnUse" x1="1522.8308" y1="1650.2089" x2="1537.3488" y2="1650.2089">
		<stop  offset="0" style="stop-color:#FFC05B"/>
		<stop  offset="0.2746" style="stop-color:#FFC25E"/>
		<stop  offset="0.5164" style="stop-color:#FFC969"/>
		<stop  offset="0.7459" style="stop-color:#FFD57B"/>
		<stop  offset="0.9666" style="stop-color:#FFE694"/>
		<stop  offset="1" style="stop-color:#FFE999"/>
	</linearGradient>
	<polygon class="st3" points="1531.7,1650.2 1537.3,1655.9 1532.9,1660.3 1522.8,1650.2 1532.9,1640.2 1537.3,1644.6 	"/>
	<linearGradient id="SVGID_4_" gradientUnits="userSpaceOnUse" x1="1533.4976" y1="1650.2089" x2="1553.6007" y2="1650.2089">
		<stop  offset="0" style="stop-color:#FDC830"/>
		<stop  offset="1" style="stop-color:#F37335"/>
	</linearGradient>
	<polygon class="st4" points="1553.6,1650.2 1543.5,1660.3 1533.5,1650.2 1538.2,1645.5 1543.5,1640.2 	"/>
	<linearGradient id="SVGID_5_" gradientUnits="userSpaceOnUse" x1="1462.3402" y1="1645.34" x2="1498.9835" y2="1645.34">
		<stop  offset="0" style="stop-color:#DBDBDB"/>
		<stop  offset="0.5604" style="stop-color:#EDEDED"/>
		<stop  offset="1" style="stop-color:#FFFFFF"/>
	</linearGradient>
	<rect x="1462.3" y="1642.3" class="st5" width="36.6" height="6.1"/>
</g>
<g class="st0">
	<linearGradient id="SVGID_6_" gradientUnits="userSpaceOnUse" x1="844.282" y1="1640.1572" x2="947.0154" y2="1640.1572">
		<stop  offset="0" style="stop-color:#76A4FF"/>
		<stop  offset="0.3648" style="stop-color:#6C99F8"/>
		<stop  offset="1" style="stop-color:#517CE5"/>
	</linearGradient>
	<path class="st6" d="M849,1611.6h93.3c2.6,0,4.7,2.1,4.7,4.7v47.6c0,2.6-2.1,4.7-4.7,4.7H849c-2.6,0-4.7-2.1-4.7-4.7v-47.6
		C844.3,1613.7,846.4,1611.6,849,1611.6z"/>
	<linearGradient id="SVGID_7_" gradientUnits="userSpaceOnUse" x1="844.282" y1="1625.1484" x2="947.0154" y2="1625.1484">
		<stop  offset="0" style="stop-color:#212121"/>
		<stop  offset="1" style="stop-color:#686868"/>
	</linearGradient>
	<rect x="844.3" y="1620.8" class="st7" width="102.7" height="8.6"/>
	<linearGradient id="SVGID_8_" gradientUnits="userSpaceOnUse" x1="908.9594" y1="1648.0806" x2="923.4772" y2="1648.0806">
		<stop  offset="0" style="stop-color:#FFC05B"/>
		<stop  offset="0.2746" style="stop-color:#FFC25E"/>
		<stop  offset="0.5164" style="stop-color:#FFC969"/>
		<stop  offset="0.7459" style="stop-color:#FFD57B"/>
		<stop  offset="0.9666" style="stop-color:#FFE694"/>
		<stop  offset="1" style="stop-color:#FFE999"/>
	</linearGradient>
	<polygon class="st8" points="917.8,1648.1 923.4,1653.7 919,1658.1 909,1648.1 919,1638 923.5,1642.5 	"/>
	<linearGradient id="SVGID_9_" gradientUnits="userSpaceOnUse" x1="919.626" y1="1648.0806" x2="939.7291" y2="1648.0806">
		<stop  offset="0" style="stop-color:#FDC830"/>
		<stop  offset="1" style="stop-color:#F37335"/>
	</linearGradient>
	<polygon class="st9" points="939.7,1648.1 929.7,1658.1 919.6,1648.1 924.3,1643.4 929.7,1638 	"/>
	<linearGradient id="SVGID_10_" gradientUnits="userSpaceOnUse" x1="848.4686" y1="1643.2117" x2="885.1119" y2="1643.2117">
		<stop  offset="0" style="stop-color:#DBDBDB"/>
		<stop  offset="0.5604" style="stop-color:#EDEDED"/>
		<stop  offset="1" style="stop-color:#FFFFFF"/>
	</linearGradient>
	<rect x="848.5" y="1640.2" class="st10" width="36.6" height="6.1"/>
</g>
<ellipse class="st11" cx="1173.6" cy="1771.8" rx="1056.5" ry="94.6"/>
<g>
	<g>
		<linearGradient id="SVGID_11_" gradientUnits="userSpaceOnUse" x1="1228.9696" y1="1936.5085" x2="1185.5201" y2="-6.2478">
			<stop  offset="0" style="stop-color:#212121"/>
			<stop  offset="1" style="stop-color:#686868"/>
		</linearGradient>
		<path class="st12" d="M1606.9,30.8H804.4c-32,0-58,27.2-58,60.7v1605.4c0,33.5,26,60.7,58,60.7h802.6c32,0,58-27.2,58-60.7V91.4
			C1664.9,57.9,1639,30.8,1606.9,30.8z"/>
		<linearGradient id="SVGID_12_" gradientUnits="userSpaceOnUse" x1="785.6292" y1="892.8704" x2="1625.5188" y2="892.8704">
			<stop  offset="0" style="stop-color:#212121"/>
			<stop  offset="1" style="stop-color:#686868"/>
		</linearGradient>
		<polygon class="st13" points="1625.5,78 1625.5,1707.7 785.6,1707.7 785.6,78 1071.2,78 1118.4,123.2 1304.9,123.2 1345.2,78 		
			"/>
		<polygon class="st14" points="883.1,78 707.3,383.8 539.1,383.8 785.6,78 		"/>
		<linearGradient id="SVGID_13_" gradientUnits="userSpaceOnUse" x1="707.2629" y1="230.8983" x2="986.5707" y2="230.8983">
			<stop  offset="0" style="stop-color:#EDEDED"/>
			<stop  offset="1" style="stop-color:#FFFFFF"/>
		</linearGradient>
		<polygon class="st15" points="986.6,78 875.4,383.8 707.3,383.8 883.1,78 		"/>
		<polygon class="st14" points="1091.4,78 1043.6,383.8 875.4,383.8 986.6,78 		"/>
		<linearGradient id="SVGID_14_" gradientUnits="userSpaceOnUse" x1="1043.6001" y1="230.8983" x2="1211.7686" y2="230.8983">
			<stop  offset="0" style="stop-color:#EDEDED"/>
			<stop  offset="1" style="stop-color:#FFFFFF"/>
		</linearGradient>
		<path class="st16" d="M1211.8,101.8v281.9h-168.2L1091.4,78h89.1c-0.2,1.2-0.3,2.4-0.3,3.6c0,12.5,9.7,22.7,21.7,22.7
			C1205.4,104.3,1208.8,103.4,1211.8,101.8z"/>
		<path class="st14" d="M1332.1,78H1263c-0.8-0.3-1.7-0.4-2.6-0.4c-0.9,0-1.8,0.1-2.6,0.4h-34.5c0.2,1.2,0.3,2.4,0.3,3.6
			c0,8.8-4.8,16.4-11.8,20.2v281.9h168.2L1332.1,78z"/>
		<linearGradient id="SVGID_15_" gradientUnits="userSpaceOnUse" x1="1332.1182" y1="230.8983" x2="1548.1057" y2="230.8983">
			<stop  offset="0" style="stop-color:#EDEDED"/>
			<stop  offset="1" style="stop-color:#FFFFFF"/>
		</linearGradient>
		<polygon class="st17" points="1548.1,383.8 1379.9,383.8 1332.1,78 1437,78 		"/>
		<polygon class="st14" points="1716.3,383.8 1548.1,383.8 1437,78 1540.4,78 		"/>
		<linearGradient id="SVGID_16_" gradientUnits="userSpaceOnUse" x1="1540.4093" y1="230.8983" x2="1884.443" y2="230.8983">
			<stop  offset="0" style="stop-color:#EDEDED"/>
			<stop  offset="1" style="stop-color:#FFFFFF"/>
		</linearGradient>
		<polygon class="st18" points="1884.4,383.8 1716.3,383.8 1540.4,78 1625.5,78 		"/>
		<path class="st14" d="M707.3,383.8v51.8c0,24-18.6,43.5-41.6,43.5h-85.1c-23,0-41.6-19.5-41.6-43.5v-51.8H707.3z"/>
		<linearGradient id="SVGID_17_" gradientUnits="userSpaceOnUse" x1="707.2629" y1="431.3988" x2="875.4315" y2="431.3988">
			<stop  offset="0" style="stop-color:#EDEDED"/>
			<stop  offset="1" style="stop-color:#FFFFFF"/>
		</linearGradient>
		<path class="st19" d="M875.4,383.8v51.8c0,24-18.6,43.5-41.6,43.5h-85.1c-23,0-41.6-19.5-41.6-43.5v-51.8H875.4z"/>
		<path class="st14" d="M1043.6,383.8v51.8c0,24-18.6,43.5-41.6,43.5H917c-23,0-41.6-19.5-41.6-43.5v-51.8H1043.6z"/>
		<linearGradient id="SVGID_18_" gradientUnits="userSpaceOnUse" x1="1043.6001" y1="431.3988" x2="1211.7686" y2="431.3988">
			<stop  offset="0" style="stop-color:#EDEDED"/>
			<stop  offset="1" style="stop-color:#FFFFFF"/>
		</linearGradient>
		<path class="st20" d="M1211.8,383.8v51.8c0,24-18.6,43.5-41.6,43.5h-85.1c-23,0-41.6-19.5-41.6-43.5v-51.8H1211.8z"/>
		<path class="st14" d="M1379.9,383.8v51.8c0,24-18.6,43.5-41.6,43.5h-85.1c-23,0-41.6-19.5-41.6-43.5v-51.8H1379.9z"/>
		<linearGradient id="SVGID_19_" gradientUnits="userSpaceOnUse" x1="1379.9371" y1="431.3988" x2="1548.1057" y2="431.3988">
			<stop  offset="0" style="stop-color:#EDEDED"/>
			<stop  offset="1" style="stop-color:#FFFFFF"/>
		</linearGradient>
		<path class="st21" d="M1548.1,383.8v51.8c0,24-18.6,43.5-41.6,43.5h-85.1c-23,0-41.6-19.5-41.6-43.5v-51.8H1548.1z"/>
		<path class="st14" d="M1716.3,383.8v51.8c0,24-18.6,43.5-41.6,43.5h-85.1c-23,0-41.6-19.5-41.6-43.5v-51.8H1716.3z"/>
		<linearGradient id="SVGID_20_" gradientUnits="userSpaceOnUse" x1="1716.2743" y1="431.3988" x2="1884.443" y2="431.3988">
			<stop  offset="0" style="stop-color:#EDEDED"/>
			<stop  offset="1" style="stop-color:#FFFFFF"/>
		</linearGradient>
		<path class="st22" d="M1884.4,383.8v51.8c0,24-18.6,43.5-41.6,43.5h-85.1c-23,0-41.6-19.5-41.6-43.5v-51.8H1884.4z"/>
		<path class="st23" d="M1200.6,1598l85.6,3.2c4.9,0.2,9-3.8,9.2-9l1.1-31.9c0.2-5.2-3-9.9-7.7-11.4l-109.9-35.4
			c-1.2-0.4-2.4-0.5-3.6-0.4c-2.5-3.7-10.6-15.7-12.3-17c-1.8-1.3-14.2-3-17.7-3.4c-0.3-0.9-0.8-1.4-1.3-1.4c-1.2,0-2.2,2.6-2.3,5.8
			s0.7,5.9,1.9,6c0.3,0,0.7-0.2,1-0.6l13.8,0.5l9.5,15c-1.2,2.2-1.6,4.8-1,7.4l15.2,65.2c0.9,4,4.3,6.9,8.2,7l2.8,0.1l-14.8,27.9
			c-0.6,1.2-0.6,2.6,0,3.7c0.6,1.1,1.8,1.9,3,1.9l18.4,0.7c-2.7,1.5-4.6,4.5-4.7,7.9c-0.2,5.2,3.7,9.5,8.7,9.7
			c5,0.2,9.1-3.9,9.3-9.1c0.1-3.5-1.6-6.5-4.2-8.3l58.6,2.2c-2.7,1.5-4.6,4.5-4.7,7.9c-0.2,5.2,3.7,9.5,8.7,9.7
			c5,0.2,9.1-3.9,9.3-9.1c0.1-3.5-1.6-6.5-4.2-8.3l13.5,0.5c2,0.1,3.7-1.6,3.8-3.7c0.1-2.1-1.5-3.9-3.5-3.9l-102.7-3.8l12.8-24.1
			C1200.4,1599.2,1200.6,1598.6,1200.6,1598z M1252.3,1593.6l-10.9-0.4l0.1-12.4l11.2,1L1252.3,1593.6z M1252.9,1575.6l-11.4-1
			l0.1-15.5l11.8,2.1L1252.9,1575.6z M1277.4,1551.8l9.5,3.1c2.1,0.7,3.6,2.8,3.5,5.2l0,1.3l-13.3-2.4L1277.4,1551.8z
			 M1276.9,1565.3l13.3,2.4l-0.4,11.1l-13.3-1.2L1276.9,1565.3z M1276.3,1583.9l13.3,1.2l-0.2,6.9c-0.1,1.7-1.4,3-3,2.9l-10.4-0.4
			L1276.3,1583.9z M1259.9,1546.2l11.6,3.7l-0.3,8l-11.7-2.1L1259.9,1546.2z M1259.3,1562.2l11.7,2.1l-0.4,12.8l-11.7-1
			L1259.3,1562.2z M1258.6,1582.3l11.7,1l-0.4,10.9l-11.7-0.4L1258.6,1582.3z M1253.9,1544.3l-0.4,10.6l-11.9-2.1l0.1-12.4
			L1253.9,1544.3z M1235.4,1593l-14.9-0.6l-0.2-13.5l15.2,1.3L1235.4,1593z M1235.5,1574l-15.3-1.3l-0.3-17.5l15.7,2.8L1235.5,1574z
			 M1235.8,1538.4l-0.1,13.2l-15.8-2.8l-0.2-15.6L1235.8,1538.4z M1214.5,1592.2l-13.7-0.5l-1-14.5l14.5,1.3L1214.5,1592.2z
			 M1214.2,1572.2l-14.9-1.3l-1.4-19.6l16,2.8L1214.2,1572.2z M1213.6,1531.3l0.3,16.5l-16.4-2.9l-1.4-19.2L1213.6,1531.3z
			 M1172.5,1524c-0.4-1.9,0.6-3.2,1-3.6c0.5-0.4,1.7-1.4,3.5-0.9l12.9,4.1l1.4,20.1l-14.8-2.6L1172.5,1524z M1178.1,1547.8l13.8,2.4
			l1.4,20.1l-10.1-0.9L1178.1,1547.8z M1187.7,1589.1l-3.1-13.2l9.1,0.8l1.1,14.8l-4.5-0.2C1189.1,1591.3,1188,1590.4,1187.7,1589.1
			z"/>
		<linearGradient id="SVGID_21_" gradientUnits="userSpaceOnUse" x1="936.2722" y1="880.2438" x2="934.6892" y2="1052.798">
			<stop  offset="0" style="stop-color:#DBDBDB"/>
			<stop  offset="0.1051" style="stop-color:#E5E5E5"/>
			<stop  offset="0.3252" style="stop-color:#F4F4F4"/>
			<stop  offset="0.5878" style="stop-color:#FCFCFC"/>
			<stop  offset="1" style="stop-color:#FFFFFF"/>
		</linearGradient>
		<rect x="858" y="883.3" class="st24" width="155.1" height="151.4"/>
		<linearGradient id="SVGID_22_" gradientUnits="userSpaceOnUse" x1="934.0463" y1="571.0557" x2="937.7401" y2="724.0851">
			<stop  offset="0" style="stop-color:#DBDBDB"/>
			<stop  offset="0.1051" style="stop-color:#E5E5E5"/>
			<stop  offset="0.3252" style="stop-color:#F4F4F4"/>
			<stop  offset="0.5878" style="stop-color:#FCFCFC"/>
			<stop  offset="1" style="stop-color:#FFFFFF"/>
		</linearGradient>
		<rect x="858" y="557.7" class="st25" width="155.1" height="151.4"/>
		<linearGradient id="SVGID_23_" gradientUnits="userSpaceOnUse" x1="937.2882" y1="1401.8492" x2="934.1219" y2="1193.9401">
			<stop  offset="0" style="stop-color:#DBDBDB"/>
			<stop  offset="0.1051" style="stop-color:#E5E5E5"/>
			<stop  offset="0.3252" style="stop-color:#F4F4F4"/>
			<stop  offset="0.5878" style="stop-color:#FCFCFC"/>
			<stop  offset="1" style="stop-color:#FFFFFF"/>
		</linearGradient>
		<rect x="858" y="1212" class="st26" width="155.1" height="151.4"/>
		<g>
			<linearGradient id="SVGID_24_" gradientUnits="userSpaceOnUse" x1="1049.8152" y1="1571.7014" x2="1388.25" y2="1571.7014">
				<stop  offset="0" style="stop-color:#DBDBDB"/>
				<stop  offset="0.1051" style="stop-color:#E5E5E5"/>
				<stop  offset="0.3252" style="stop-color:#F4F4F4"/>
				<stop  offset="0.5878" style="stop-color:#FCFCFC"/>
				<stop  offset="1" style="stop-color:#FFFFFF"/>
			</linearGradient>
			<path class="st27" d="M1270.6,1689.4h-103.1c-64.9,0-117.7-52.8-117.7-117.7c0-64.9,52.8-117.7,117.7-117.7h103.1
				c64.9,0,117.7,52.8,117.7,117.7C1388.3,1636.6,1335.5,1689.4,1270.6,1689.4z M1167.5,1472c-55,0-99.7,44.7-99.7,99.7
				c0,55,44.7,99.7,99.7,99.7h103.1c55,0,99.7-44.7,99.7-99.7c0-55-44.7-99.7-99.7-99.7H1167.5z"/>
		</g>
	</g>
	<g class="st28">
		<g>
			<linearGradient id="SVGID_25_" gradientUnits="userSpaceOnUse" x1="931.9651" y1="681.9048" x2="932.6833" y2="631.9854">
				<stop  offset="0" style="stop-color:#E2A67D"/>
				<stop  offset="0.2845" style="stop-color:#E0A379"/>
				<stop  offset="0.5468" style="stop-color:#DA9A6E"/>
				<stop  offset="0.7995" style="stop-color:#CF8A5C"/>
				<stop  offset="1" style="stop-color:#C47947"/>
			</linearGradient>
			<rect x="886.9" y="642.3" class="st29" width="90.7" height="39.5"/>
			<linearGradient id="SVGID_26_" gradientUnits="userSpaceOnUse" x1="932.1487" y1="642.8283" x2="932.4055" y2="624.9811">
				<stop  offset="0" style="stop-color:#E2A67D"/>
				<stop  offset="0.2845" style="stop-color:#E0A379"/>
				<stop  offset="0.5468" style="stop-color:#DA9A6E"/>
				<stop  offset="0.7995" style="stop-color:#CF8A5C"/>
				<stop  offset="1" style="stop-color:#C47947"/>
			</linearGradient>
			<rect x="879.5" y="629.2" class="st30" width="105.4" height="13.1"/>
			<linearGradient id="SVGID_27_" gradientUnits="userSpaceOnUse" x1="932.0597" y1="662.39" x2="932.2897" y2="646.399">
				<stop  offset="0" style="stop-color:#EDEDED"/>
				<stop  offset="0.1369" style="stop-color:#F6F6F6"/>
				<stop  offset="0.3653" style="stop-color:#FDFDFD"/>
				<stop  offset="1" style="stop-color:#FFFFFF"/>
			</linearGradient>
			<rect x="913.7" y="649.7" class="st31" width="36.9" height="12.6"/>
		</g>
		
			<linearGradient id="SVGID_28_" gradientUnits="userSpaceOnUse" x1="-19819.9258" y1="613.148" x2="-19766.2988" y2="613.148" gradientTransform="matrix(-1 0 0 1 -18834.0488 0)">
			<stop  offset="0" style="stop-color:#FDC830"/>
			<stop  offset="1" style="stop-color:#F37335"/>
		</linearGradient>
		<path class="st32" d="M932.3,626.5h6.1c0,0,25.4-23.5,36.8-21.3c11.4,2.2-9.2,20.7-36.8,21.3v1.6h1c0,0,58.1-4,44.5-23.7
			C968.6,582.4,932.3,626.5,932.3,626.5z"/>
		<linearGradient id="SVGID_29_" gradientUnits="userSpaceOnUse" x1="929.5502" y1="622.9888" x2="935.7024" y2="622.9888">
			<stop  offset="0" style="stop-color:#FDC830"/>
			<stop  offset="1" style="stop-color:#F37335"/>
		</linearGradient>
		<path class="st33" d="M935.2,626.5H931c0,0,1.9-5.4-1.4-5.9c0,0,4.5-2.4,5.6,0C936.3,623,935.2,626.5,935.2,626.5z"/>
		<linearGradient id="SVGID_30_" gradientUnits="userSpaceOnUse" x1="926.1074" y1="655.1425" x2="938.3945" y2="655.1425">
			<stop  offset="0" style="stop-color:#FDC830"/>
			<stop  offset="1" style="stop-color:#F37335"/>
		</linearGradient>
		<rect x="926.1" y="626.5" class="st34" width="12.3" height="57.3"/>
		<linearGradient id="SVGID_31_" gradientUnits="userSpaceOnUse" x1="878.624" y1="613.148" x2="932.251" y2="613.148">
			<stop  offset="0" style="stop-color:#FDC830"/>
			<stop  offset="1" style="stop-color:#F37335"/>
		</linearGradient>
		<path class="st35" d="M932.3,626.5h-6.1c0,0-25.4-23.5-36.8-21.3c-11.4,2.2,9.2,20.7,36.8,21.3v1.6h-1c0,0-58.1-4-44.5-23.7
			C895.9,582.4,932.3,626.5,932.3,626.5z"/>
		<path class="st36" d="M926.1,626.5c-27.6-0.6-48.2-19.1-36.8-21.3C900.7,603,926.1,626.5,926.1,626.5z"/>
		<linearGradient id="SVGID_32_" gradientUnits="userSpaceOnUse" x1="926.1074" y1="623.105" x2="932.2596" y2="623.105">
			<stop  offset="0" style="stop-color:#FDC830"/>
			<stop  offset="1" style="stop-color:#F37335"/>
		</linearGradient>
		<path class="st37" d="M931.8,626.5h-4.2c0,0,1.9-5.3-1.4-5.7c0,0,4.5-2.3,5.6,0C932.9,623.1,931.8,626.5,931.8,626.5z"/>
	</g>
	<path class="st38" d="M1063.9,885.5h327.7c11.2,0,20.3,11.1,20.3,24.9l0,0c0,13.7-9.1,24.9-20.3,24.9h-327.7
		c-11.2,0-20.3-11.1-20.3-24.9l0,0C1043.6,896.6,1052.7,885.5,1063.9,885.5z"/>
	<rect x="1043.6" y="950.9" class="st38" width="551.6" height="29.3"/>
	<rect x="1043.6" y="996.9" class="st38" width="551.6" height="29.3"/>
	<path class="st38" d="M1063.9,1217.6h327.7c11.2,0,20.3,11.1,20.3,24.9v0c0,13.7-9.1,24.9-20.3,24.9h-327.7
		c-11.2,0-20.3-11.1-20.3-24.9v0C1043.6,1228.7,1052.7,1217.6,1063.9,1217.6z"/>
	<rect x="1043.6" y="1283" class="st38" width="551.6" height="29.3"/>
	<rect x="1043.6" y="1329.1" class="st38" width="551.6" height="29.3"/>
	<g class="st39">
		<linearGradient id="SVGID_33_" gradientUnits="userSpaceOnUse" x1="938.0699" y1="1011.5613" x2="937.0361" y2="935.7557">
			<stop  offset="0" style="stop-color:#78BFFF"/>
			<stop  offset="1" style="stop-color:#F9F9F9"/>
		</linearGradient>
		<rect x="892.5" y="943" class="st40" width="90.2" height="66.8"/>
		<linearGradient id="SVGID_34_" gradientUnits="userSpaceOnUse" x1="936.9949" y1="962.843" x2="937.5118" y2="943.8918">
			<stop  offset="0" style="stop-color:#78BFFF"/>
			<stop  offset="1" style="stop-color:#F9F9F9"/>
		</linearGradient>
		<rect x="886.8" y="943" class="st41" width="101" height="16"/>
		
			<linearGradient id="SVGID_35_" gradientUnits="userSpaceOnUse" x1="-19822.3652" y1="924.5676" x2="-19770.4824" y2="924.5676" gradientTransform="matrix(-1 0 0 1 -18834.0488 0)">
			<stop  offset="0" style="stop-color:#FF9292"/>
			<stop  offset="1" style="stop-color:#E82828"/>
		</linearGradient>
		<path class="st42" d="M936.4,941h5.9c0,0,24.6-29,35.6-26.3c11,2.7-8.9,25.6-35.6,26.3v2h0.9c0,0,56.2-5,43-29.3
			C971.6,886.6,936.4,941,936.4,941z"/>
		<linearGradient id="SVGID_36_" gradientUnits="userSpaceOnUse" x1="933.8209" y1="936.7187" x2="939.7731" y2="936.7187">
			<stop  offset="0" style="stop-color:#FF9292"/>
			<stop  offset="1" style="stop-color:#E82828"/>
		</linearGradient>
		<path class="st43" d="M939.3,941h-4.1c0,0,1.9-6.7-1.4-7.3c0,0,4.4-3,5.5,0C940.4,936.7,939.3,941,939.3,941z"/>
		<linearGradient id="SVGID_37_" gradientUnits="userSpaceOnUse" x1="930.4899" y1="976.4211" x2="942.3776" y2="976.4211">
			<stop  offset="0" style="stop-color:#FF9292"/>
			<stop  offset="1" style="stop-color:#E82828"/>
		</linearGradient>
		<rect x="930.5" y="941" class="st44" width="11.9" height="70.8"/>
		<linearGradient id="SVGID_38_" gradientUnits="userSpaceOnUse" x1="884.5504" y1="924.5676" x2="936.4338" y2="924.5676">
			<stop  offset="0" style="stop-color:#FF9292"/>
			<stop  offset="1" style="stop-color:#E82828"/>
		</linearGradient>
		<path class="st45" d="M936.4,941h-5.9c0,0-24.6-29-35.6-26.3c-11,2.7,8.9,25.6,35.6,26.3v2h-0.9c0,0-56.2-5-43-29.3
			C901.3,886.6,936.4,941,936.4,941z"/>
		<linearGradient id="SVGID_39_" gradientUnits="userSpaceOnUse" x1="930.4899" y1="936.8622" x2="936.4423" y2="936.8622">
			<stop  offset="0" style="stop-color:#FF9292"/>
			<stop  offset="1" style="stop-color:#E82828"/>
		</linearGradient>
		<path class="st46" d="M936,941h-4.1c0,0,1.9-6.5-1.4-7c0,0,4.4-2.9,5.5,0C937.1,936.9,936,941,936,941z"/>
	</g>
	<g class="st47">
		<g>
			<path class="st48" d="M919.5,1263.4c-0.1-0.3-10-26.9,11.1-35.6c8.5-3.5,14-0.7,17.2,2.3c7.9,7.3,9.7,23.4,6.5,33.3l-1.8-0.6
				c3.1-9.3,1.4-24.5-5.9-31.3c-4-3.7-9.1-4.4-15.1-1.9c-19.3,8-10.1,32.9-10,33.1L919.5,1263.4z"/>
		</g>
		<linearGradient id="SVGID_40_" gradientUnits="userSpaceOnUse" x1="883.5786" y1="1304.6919" x2="987.5214" y2="1304.6919">
			<stop  offset="0" style="stop-color:#FFC05B"/>
			<stop  offset="0.2746" style="stop-color:#FFC25E"/>
			<stop  offset="0.5164" style="stop-color:#FFC969"/>
			<stop  offset="0.7459" style="stop-color:#FFD57B"/>
			<stop  offset="0.9666" style="stop-color:#FFE694"/>
			<stop  offset="1" style="stop-color:#FFE999"/>
		</linearGradient>
		<path class="st49" d="M987.5,1349.3H883.6c0,0,9.7-65.8,12.1-89.1h79.8C975.5,1260.1,983.2,1340.7,987.5,1349.3z"/>
		<linearGradient id="SVGID_41_" gradientUnits="userSpaceOnUse" x1="935.5529" y1="1252.0221" x2="935.5529" y2="1258.8291">
			<stop  offset="0" style="stop-color:#E2A67D"/>
			<stop  offset="0.2845" style="stop-color:#E0A379"/>
			<stop  offset="0.5468" style="stop-color:#DA9A6E"/>
			<stop  offset="0.7995" style="stop-color:#CF8A5C"/>
			<stop  offset="1" style="stop-color:#C47947"/>
		</linearGradient>
		<polygon class="st50" points="895.6,1260.1 904.4,1257.2 897.8,1254.2 971.7,1254.2 967.5,1257.1 975.5,1260.1 		"/>
		<linearGradient id="SVGID_42_" gradientUnits="userSpaceOnUse" x1="919.3557" y1="1272.9502" x2="924.4861" y2="1272.9502">
			<stop  offset="0" style="stop-color:#F3F7FF"/>
			<stop  offset="1" style="stop-color:#CDD9FF"/>
		</linearGradient>
		<path class="st51" d="M924.5,1273c0,1.4-1.1,2.6-2.6,2.6c-1.4,0-2.6-1.1-2.6-2.6s1.1-2.6,2.6-2.6
			C923.3,1270.4,924.5,1271.5,924.5,1273z"/>
		<linearGradient id="SVGID_43_" gradientUnits="userSpaceOnUse" x1="952.2556" y1="1272.9502" x2="957.386" y2="1272.9502">
			<stop  offset="0" style="stop-color:#F3F7FF"/>
			<stop  offset="1" style="stop-color:#CDD9FF"/>
		</linearGradient>
		<path class="st52" d="M957.4,1273c0,1.4-1.1,2.6-2.6,2.6c-1.4,0-2.6-1.1-2.6-2.6s1.1-2.6,2.6-2.6
			C956.2,1270.4,957.4,1271.5,957.4,1273z"/>
		<g>
			<path class="st48" d="M954.8,1273.8c-0.1,0-0.2,0-0.4-0.1c-0.6-0.2-0.9-0.9-0.7-1.5c3.2-9.8,2-25.1-5.1-32.2c-4-4-9.3-5-15.8-2.9
				c-4.7,1.5-8.1,4.3-10.1,8.4c-5.2,10.5,0.3,26,0.3,26.2c0.2,0.6-0.1,1.3-0.7,1.5c-0.6,0.2-1.3-0.1-1.5-0.7
				c-0.2-0.7-5.9-16.6-0.2-28c2.3-4.7,6.2-7.9,11.5-9.6c7.3-2.3,13.6-1.1,18.2,3.5c7.7,7.7,9.1,24.1,5.7,34.5
				C955.8,1273.4,955.3,1273.8,954.8,1273.8z"/>
		</g>
	</g>
	<path class="st38" d="M1063.9,557.7h327.7c11.2,0,20.3,11.1,20.3,24.9l0,0c0,13.7-9.1,24.9-20.3,24.9h-327.7
		c-11.2,0-20.3-11.1-20.3-24.9l0,0C1043.6,568.8,1052.7,557.7,1063.9,557.7z"/>
	<rect x="1043.6" y="623.1" class="st38" width="551.6" height="29.3"/>
	<rect x="1043.6" y="669.2" class="st38" width="551.6" height="29.3"/>
</g>
<g>
	<g>
		<linearGradient id="SVGID_44_" gradientUnits="userSpaceOnUse" x1="576.4777" y1="621.6384" x2="663.0767" y2="621.6384">
			<stop  offset="0" style="stop-color:#F9B4A0"/>
			<stop  offset="0.2276" style="stop-color:#F9BAAB"/>
			<stop  offset="0.6251" style="stop-color:#FAC9C8"/>
			<stop  offset="1" style="stop-color:#FBDBE9"/>
		</linearGradient>
		<path class="st53" d="M663.1,651.7c-0.1,15.8-1.2,28.1-4,30.3c-8.9,7-33.5,0-33.5,0l-14-35.1c0,0-22.2,6.6-32.7-22.4
			c-10.5-29,16.4-47.7,24.5-39.5c8.2,8.2,16.4,66.6,16.4,66.6s-5.9-74.9,0-87.7c5.9-12.8,39.3,0,39.3,0S663.4,616.6,663.1,651.7z"/>
		<linearGradient id="SVGID_45_" gradientUnits="userSpaceOnUse" x1="529.4089" y1="601.8378" x2="663.0782" y2="601.8378">
			<stop  offset="0" style="stop-color:#212121"/>
			<stop  offset="1" style="stop-color:#686868"/>
		</linearGradient>
		<path class="st54" d="M663.1,512.5l-4,51.4c0,0-33.5-12.8-39.3,0c-5.9,12.8,0,87.7,0,87.7s-8.2-58.4-16.4-66.6
			c-8.2-8.2-35.1,10.5-24.5,39.5c10.5,29,32.7,22.4,32.7,22.4l-15.4,49.5l-54.5-11.3c8.6-15.2-18.7-119.6-10.9-149.5
			c7.8-29.9,55.3-11.4,89-23.1C653.4,500.8,663.1,512.5,663.1,512.5z"/>
		<linearGradient id="SVGID_46_" gradientUnits="userSpaceOnUse" x1="606.9236" y1="680.7875" x2="664.3729" y2="680.7875">
			<stop  offset="0" style="stop-color:#212121"/>
			<stop  offset="1" style="stop-color:#686868"/>
		</linearGradient>
		<path class="st55" d="M663.1,701c-2.6,21.8-42.3,11.8-53.2,7.9c-1.5-0.5-2.5-1-2.7-1.2c-1.6-1.6,4.4-60.9,4.4-60.9l14,35.1
			c0,0,24.5,7,33.5,0c2.8-2.2,3.8-14.4,4-30.3C663.1,651.7,666,676.1,663.1,701z"/>
		<path class="st56" d="M935.7,700.7c0,0-45.1,303.8-199.2,291.8c-14.8-1.2-28.3-3.4-40.5-6.7v0C592.8,958.4,581.1,861.9,619.8,786
			c8.1-15.9,16.2-27.5,24-35.8c25.6,12.8,64,38.1,75.3,79c17.5,63.1,78.1,43.4,126.2-52.6c18-36,54.7-91.1,54.7-91.1L935.7,700.7z"
			/>
		<path class="st14" d="M696,985.8v160.6c-54.6,31.8-135.3,23.1-186.5,12.5c-29.1-6-48.8-12.5-48.8-12.5s4-105.2,8.9-202
			c3.2-63.3,6.8-123,9.8-147.5c7.8-62.1,50-75.6,50-75.6s59.1-7,85.6,14l4.8,4.7c0,0,1.5,0.5,4,1.4c4.2,1.6,11.4,4.4,20,8.8
			c-7.8,8.3-15.9,19.9-24,35.8C581.1,861.9,592.8,958.4,696,985.8z"/>
		<linearGradient id="SVGID_47_" gradientUnits="userSpaceOnUse" x1="529.4083" y1="722.9499" x2="623.7938" y2="722.9499">
			<stop  offset="0" style="stop-color:#FFC05B"/>
			<stop  offset="0.2746" style="stop-color:#FFC25E"/>
			<stop  offset="0.5164" style="stop-color:#FFC969"/>
			<stop  offset="0.7459" style="stop-color:#FFD57B"/>
			<stop  offset="0.9666" style="stop-color:#FFE694"/>
			<stop  offset="1" style="stop-color:#FFE999"/>
		</linearGradient>
		<path class="st57" d="M623.8,741.4c-2.6-1-4-1.4-4-1.4l-4.8-4.7c-26.5-21-85.6-14-85.6-14l5.3-15.7c0,0,45.6-6.2,75.1,10.1v0
			c3.6,2,6.9,4.3,9.9,7c1.4,1.2,2.7,2.5,3.9,3.9L623.8,741.4z"/>
		<path class="st58" d="M744.7,1747.5h-61.6c0,0-13.2-106.4-47.5-221.7c-10.1-33.9-25.1-79.5-41.3-127.1c0,0,0,0,0,0
			c-39-114.3-84.8-239.8-84.8-239.8c51.3,10.5,131.9,19.3,186.5-12.5C762.6,1430.8,744.7,1747.5,744.7,1747.5z"/>
		<linearGradient id="SVGID_48_" gradientUnits="userSpaceOnUse" x1="534.7375" y1="681.3057" x2="611.6082" y2="681.3057">
			<stop  offset="0" style="stop-color:#F9B4A0"/>
			<stop  offset="0.2276" style="stop-color:#F9BAAB"/>
			<stop  offset="0.6251" style="stop-color:#FAC9C8"/>
			<stop  offset="1" style="stop-color:#FBDBE9"/>
		</linearGradient>
		<path class="st59" d="M607.2,707.8c0.2,0.2,1.2,0.6,2.7,1.2v6.7c-29.5-16.3-75.1-10.1-75.1-10.1l7-20.6l54.5,11.3l15.4-49.5
			C611.6,646.9,605.6,706.2,607.2,707.8z"/>
		<g>
			<linearGradient id="SVGID_49_" gradientUnits="userSpaceOnUse" x1="609.8705" y1="715.72" x2="609.8708" y2="715.6977">
				<stop  offset="0" style="stop-color:#78BFFF"/>
				<stop  offset="1" style="stop-color:#F9F9F9"/>
			</linearGradient>
			<polygon class="st60" points="609.4,715.7 609.4,715.7 610.4,715.7 			"/>
		</g>
		<linearGradient id="SVGID_50_" gradientUnits="userSpaceOnUse" x1="897.3018" y1="647.0765" x2="952.4199" y2="647.0765">
			<stop  offset="0" style="stop-color:#F9B4A0"/>
			<stop  offset="0.2276" style="stop-color:#F9BAAB"/>
			<stop  offset="0.6251" style="stop-color:#FAC9C8"/>
			<stop  offset="1" style="stop-color:#FBDBE9"/>
		</linearGradient>
		<path class="st61" d="M951.9,668.2c-2.6,9.9-16.3,32.5-16.3,32.5L900,685.5c0,0-6.2-23.6,0-33.5c6.2-9.9,30.6-49.4,31.6-55.6
			c1-6.2,10.6-3.6,4,15.1c-6.6,18.7-5.4,25.8,0,27.9c5.4,2.2,13.1,7.9,11.6,15.2C945.7,662,954.5,658.3,951.9,668.2z"/>
		<linearGradient id="SVGID_51_" gradientUnits="userSpaceOnUse" x1="683.1337" y1="1756.8665" x2="744.6863" y2="1756.8665">
			<stop  offset="0" style="stop-color:#F9B4A0"/>
			<stop  offset="0.2276" style="stop-color:#F9BAAB"/>
			<stop  offset="0.6251" style="stop-color:#FAC9C8"/>
			<stop  offset="1" style="stop-color:#FBDBE9"/>
		</linearGradient>
		<rect x="683.1" y="1747.5" class="st62" width="61.6" height="18.8"/>
		<linearGradient id="SVGID_52_" gradientUnits="userSpaceOnUse" x1="489.9054" y1="1755.8263" x2="549.6505" y2="1755.8263">
			<stop  offset="0" style="stop-color:#F9B4A0"/>
			<stop  offset="0.2276" style="stop-color:#F9BAAB"/>
			<stop  offset="0.6251" style="stop-color:#FAC9C8"/>
			<stop  offset="1" style="stop-color:#FBDBE9"/>
		</linearGradient>
		<polygon class="st63" points="549.7,1747.5 548.6,1764.2 489.9,1764.2 489.9,1747.5 		"/>
		<path class="st58" d="M840.8,1820.8c-18.2,6.7-85.2,8.3-102.8,0c0,0-10.4-7.3-16.6-4.7c-6.2,2.6-7.4,10.3-7.4,10.3h-36.8V1766
			l6,0.3h61.6c0,0,11.9-2.6,18.7,8.8c6.8,11.4,40,24.4,61.8,19.7C847,1790.2,859,1814.1,840.8,1820.8z"/>
		<path class="st58" d="M635.5,1819c-16.8,6.7-78.7,8.3-95,0c0,0-9.6-7.3-15.3-4.7c-5.8,2.6-6.8,10.3-6.8,10.3h-33.9v-60.5l5.5,0.3
			h56.8c0,0,11-2.6,17.3,8.8c6.2,11.4,36.9,24.4,57.1,19.7C641.2,1788.3,652.2,1812.2,635.5,1819z"/>
	</g>
	<path class="st64" d="M471.9,1213.1l-27,35.6l-49-15.1c7.5-64,73.6-289.2,73.6-289.2c-4.9,96.8-8.9,202-8.9,202
		S465.9,1172.6,471.9,1213.1z"/>
	<linearGradient id="SVGID_53_" gradientUnits="userSpaceOnUse" x1="382.1751" y1="1260.3907" x2="444.9442" y2="1260.3907">
		<stop  offset="0" style="stop-color:#F9B4A0"/>
		<stop  offset="0.2276" style="stop-color:#F9BAAB"/>
		<stop  offset="0.6251" style="stop-color:#FAC9C8"/>
		<stop  offset="1" style="stop-color:#FBDBE9"/>
	</linearGradient>
	<path class="st65" d="M444.9,1248.7c-1.9,2.6-3.9,19.6-4.9,30.3c-0.1-1.2-0.3-2.3-0.8-3.3c-1.7-4-8.5,9-9.8,11.5
		c0.3-1,0.5-3.9-3.3-11.5c-3.3-6.6-9.5,0.5-13.4,6.3c1-2.4,1.8-5.6,1.5-9.4c-0.6-8.7-15.8,4.7-17.9,6.7c1.2-1.3,6.4-7.4-0.3-12.9
		c-7.3-6.1-13.5,6.8-13.8,7.5l13.8-40.2L444.9,1248.7z"/>
	<g>
		<linearGradient id="SVGID_54_" gradientUnits="userSpaceOnUse" x1="438.8093" y1="1283.3197" x2="440.6316" y2="1283.3197">
			<stop  offset="0" style="stop-color:#FFC05B"/>
			<stop  offset="0.2746" style="stop-color:#FFC25E"/>
			<stop  offset="0.5164" style="stop-color:#FFC969"/>
			<stop  offset="0.7459" style="stop-color:#FFD57B"/>
			<stop  offset="0.9666" style="stop-color:#FFE694"/>
			<stop  offset="1" style="stop-color:#FFE999"/>
		</linearGradient>
		<path class="st66" d="M439.8,1287.7l-1-0.2c0,0,1.1-4.5,0.8-8.5l1-0.1C440.9,1283.1,439.8,1287.5,439.8,1287.7z"/>
	</g>
	<g>
		<linearGradient id="SVGID_55_" gradientUnits="userSpaceOnUse" x1="428.9503" y1="1287.1757" x2="429.9499" y2="1287.1757">
			<stop  offset="0" style="stop-color:#FFC05B"/>
			<stop  offset="0.2746" style="stop-color:#FFC25E"/>
			<stop  offset="0.5164" style="stop-color:#FFC969"/>
			<stop  offset="0.7459" style="stop-color:#FFD57B"/>
			<stop  offset="0.9666" style="stop-color:#FFE694"/>
			<stop  offset="1" style="stop-color:#FFE999"/>
		</linearGradient>
		<polygon class="st67" points="429.8,1287.5 429.5,1287.2 429.1,1287.5 429,1287.2 429.1,1286.8 429.5,1287.2 429.8,1286.8 
			429.5,1287.2 429.9,1287.2 429.5,1287.2 		"/>
	</g>
	<g>
		<linearGradient id="SVGID_56_" gradientUnits="userSpaceOnUse" x1="408.8" y1="1287.5892" x2="409.5158" y2="1287.5892">
			<stop  offset="0" style="stop-color:#FFC05B"/>
			<stop  offset="0.2746" style="stop-color:#FFC25E"/>
			<stop  offset="0.5164" style="stop-color:#FFC969"/>
			<stop  offset="0.7459" style="stop-color:#FFD57B"/>
			<stop  offset="0.9666" style="stop-color:#FFE694"/>
			<stop  offset="1" style="stop-color:#FFE999"/>
		</linearGradient>
		<polygon class="st68" points="409.5,1287.9 408.8,1287.2 408.8,1287.2 409.2,1287.6 		"/>
	</g>
	<g>
		<linearGradient id="SVGID_57_" gradientUnits="userSpaceOnUse" x1="395.6291" y1="1279.4037" x2="396.4641" y2="1279.4037">
			<stop  offset="0" style="stop-color:#FFC05B"/>
			<stop  offset="0.2746" style="stop-color:#FFC25E"/>
			<stop  offset="0.5164" style="stop-color:#FFC969"/>
			<stop  offset="0.7459" style="stop-color:#FFD57B"/>
			<stop  offset="0.9666" style="stop-color:#FFE694"/>
			<stop  offset="1" style="stop-color:#FFE999"/>
		</linearGradient>
		<polygon class="st69" points="396.2,1279.9 395.7,1279 396,1279.4 395.6,1279.1 395.8,1278.9 396.5,1279.7 		"/>
	</g>
	<g>
		<path class="st58" d="M509.5,1158.9c-29.1-6-48.8-12.5-48.8-12.5s5.2,26.2,11.2,66.7c5.1,34.4,10.7,79,14.3,126.6l3.6,1.8
			l-3.5-0.4c4.2,56.9,5.2,118-1.4,170.8c-1.5,12.2-2.8,23.9-3.7,35.2c-11.3,127.8,8.7,200.4,8.7,200.4h59.7
			c0,0,21.2-198.4,28.7-248.6c7.5-49.9,15.8-99.4,16-100.2c0,0,0,0,0,0C555.3,1284.3,509.5,1158.9,509.5,1158.9z"/>
		<linearGradient id="SVGID_58_" gradientUnits="userSpaceOnUse" x1="249.9241" y1="1434.3301" x2="489.6555" y2="1434.3301">
			<stop  offset="0" style="stop-color:#E2A67D"/>
			<stop  offset="0.2845" style="stop-color:#E0A379"/>
			<stop  offset="0.5468" style="stop-color:#DA9A6E"/>
			<stop  offset="0.7995" style="stop-color:#CF8A5C"/>
			<stop  offset="1" style="stop-color:#C47947"/>
		</linearGradient>
		<path class="st70" d="M484.9,1511.8c-1.5,12.2-2.8,23.9-3.7,35.2L249.9,1523c0,0,38.9-148.4,50-201.3l52.2,5.4l1.6,0.2l3.1,0.3
			l2.6,0.3l78.9,8.2l3.9,0.4l0.7,0.1l4.8,0.5l38.7,4C490.5,1397.9,491.5,1459,484.9,1511.8z"/>
		<linearGradient id="SVGID_59_" gradientUnits="userSpaceOnUse" x1="486.1974" y1="1340.511" x2="489.8416" y2="1340.511">
			<stop  offset="0" style="stop-color:#E2A67D"/>
			<stop  offset="0.2845" style="stop-color:#E0A379"/>
			<stop  offset="0.5468" style="stop-color:#DA9A6E"/>
			<stop  offset="0.7995" style="stop-color:#CF8A5C"/>
			<stop  offset="1" style="stop-color:#C47947"/>
		</linearGradient>
		<path class="st71" d="M489.8,1341.4l-3.5-0.4c0-0.5-0.1-0.9-0.1-1.4L489.8,1341.4z"/>
		<linearGradient id="SVGID_60_" gradientUnits="userSpaceOnUse" x1="393.1036" y1="1296.7655" x2="393.1036" y2="1333.9689">
			<stop  offset="0" style="stop-color:#E2A67D"/>
			<stop  offset="0.2845" style="stop-color:#E0A379"/>
			<stop  offset="0.5468" style="stop-color:#DA9A6E"/>
			<stop  offset="0.7995" style="stop-color:#CF8A5C"/>
			<stop  offset="1" style="stop-color:#C47947"/>
		</linearGradient>
		<path class="st72" d="M486.3,1341l-38.7-4l-4.8-0.5l-0.7-0.1l-3.9-0.4l-78.9-8.2l-2.6-0.3l-3.1-0.3l-1.6-0.2l-52.2-5.4l6.6-1.4
			l14.9-3.1l-14.9-8.7l45.8,4.8l2.6,0.3l2,0.2l3.6,0.4l79,8.2l2.7,0.3l1.8,0.2l3.7,0.4l34.5,3.6l-10.8,5.8l8.7,4.2l6,2.9
			C486.2,1340.1,486.3,1340.6,486.3,1341z"/>
		<g>
			<path class="st48" d="M354.8,1345.6c-0.2-0.6-17.4-64.1,34.8-78.9c21-5.9,33.6,1.9,40.4,9.4c17,18.7,17.6,56.1,7.4,77.9l-4.3-1.9
				c9.5-20.6,9.1-55.7-6.7-73.1c-8.7-9.6-20.7-12.3-35.6-8.1c-47.9,13.5-31.8,72.8-31.6,73.4L354.8,1345.6z"/>
		</g>
		
			<linearGradient id="SVGID_61_" gradientUnits="userSpaceOnUse" x1="114.4225" y1="709.2025" x2="126.6994" y2="709.2025" gradientTransform="matrix(0.9946 0.1035 -0.1035 0.9946 312.8635 639.6948)">
			<stop  offset="0" style="stop-color:#F3F7FF"/>
			<stop  offset="1" style="stop-color:#CDD9FF"/>
		</linearGradient>
		<path class="st73" d="M365.5,1358.2c-0.3,3.2-3.3,5.6-6.7,5.2c-3.4-0.4-5.8-3.3-5.5-6.5c0.3-3.2,3.3-5.6,6.7-5.2
			C363.4,1352,365.8,1354.9,365.5,1358.2z"/>
		
			<linearGradient id="SVGID_62_" gradientUnits="userSpaceOnUse" x1="193.1492" y1="709.1995" x2="205.426" y2="709.1995" gradientTransform="matrix(0.9946 0.1035 -0.1035 0.9946 312.8635 639.6948)">
			<stop  offset="0" style="stop-color:#F3F7FF"/>
			<stop  offset="1" style="stop-color:#CDD9FF"/>
		</linearGradient>
		<path class="st74" d="M443.8,1366.3c-0.3,3.2-3.3,5.6-6.7,5.2c-3.4-0.4-5.8-3.3-5.5-6.5c0.3-3.2,3.3-5.6,6.7-5.2
			C441.7,1360.2,444.1,1363.1,443.8,1366.3z"/>
		<g>
			<path class="st48" d="M437.5,1367.5c-0.3,0-0.6-0.1-0.9-0.2c-1.4-0.6-2-2.2-1.4-3.6c10-21.6,10.6-56.9-4.5-75
				c-8.5-10.2-20.9-13.7-37-10.6c-11.5,2.3-20.3,7.9-26.1,16.8c-14.9,22.8-5.5,59.7-5.4,60.1c0.4,1.4-0.5,2.9-2,3.2
				c-1.5,0.3-3-0.5-3.4-2c-0.4-1.6-10-39.5,6.1-64.2c6.6-10.1,16.6-16.6,29.6-19.1c18-3.5,32.7,0.8,42.5,12.5
				c16.4,19.6,15.9,57.5,5.2,80.6C439.8,1367.1,438.6,1367.7,437.5,1367.5z"/>
		</g>
	</g>
	<linearGradient id="SVGID_63_" gradientUnits="userSpaceOnUse" x1="412.2732" y1="1276.5011" x2="404.5048" y2="1297.5701">
		<stop  offset="0" style="stop-color:#F9B4A0"/>
		<stop  offset="0.2276" style="stop-color:#F9BAAB"/>
		<stop  offset="0.6251" style="stop-color:#FAC9C8"/>
		<stop  offset="1" style="stop-color:#FBDBE9"/>
	</linearGradient>
	<path class="st75" d="M439.3,1275.7c-1.7-4-8.5,9-9.8,11.5c0.3-1,0.5-3.9-3.3-11.5c-3.3-6.6-9.5,0.5-13.4,6.3
		c-1.4,3.5-3.3,5.5-3.5,5.6c0.1-0.2,1.5-2.8,3.5-5.6c1-2.4,1.8-5.6,1.5-9.4c-0.6-8.7-15.8,4.7-17.9,6.7c1.2-1.3,6.4-7.4-0.3-12.9
		c-7.3-6.1-13.5,6.8-13.8,7.5l0,0c0,0,5.8,6.9,8.6,7.8c2.8,0.9,7.5,9.9,12.2,9.9s15.5,0.9,21.7,0c0,0,9.9,6.8,14.6-3.9
		c0,0,0.3-3.6,0.8-8.6C440,1277.8,439.7,1276.6,439.3,1275.7z M429.2,1287.6c0,0,0.1-0.1,0.2-0.4
		C429.4,1287.5,429.2,1287.6,429.2,1287.6z"/>
</g>
<rect x="341.4" y="1404" transform="matrix(0.9946 0.1035 -0.1035 0.9946 148.5785 -33.1784)" class="st38" width="105.4" height="23.2"/>
<linearGradient id="SVGID_64_" gradientUnits="userSpaceOnUse" x1="307.5258" y1="1314.4183" x2="322.4318" y2="1314.4183">
	<stop  offset="0" style="stop-color:#E2A67D"/>
	<stop  offset="0.2845" style="stop-color:#E0A379"/>
	<stop  offset="0.5468" style="stop-color:#DA9A6E"/>
	<stop  offset="0.7995" style="stop-color:#CF8A5C"/>
	<stop  offset="1" style="stop-color:#C47947"/>
</linearGradient>
<polygon class="st76" points="322.4,1317.2 307.5,1320.3 307.5,1308.6 "/>
<linearGradient id="SVGID_65_" gradientUnits="userSpaceOnUse" x1="472.5554" y1="1331.8009" x2="483.3372" y2="1331.8009">
	<stop  offset="0" style="stop-color:#E2A67D"/>
	<stop  offset="0.2845" style="stop-color:#E0A379"/>
	<stop  offset="0.5468" style="stop-color:#DA9A6E"/>
	<stop  offset="0.7995" style="stop-color:#CF8A5C"/>
	<stop  offset="1" style="stop-color:#C47947"/>
</linearGradient>
<polygon class="st77" points="483.3,1326.8 481.2,1336.8 472.6,1332.6 "/>
<g>
	
		<linearGradient id="SVGID_66_" gradientUnits="userSpaceOnUse" x1="1029.3373" y1="-3653.8022" x2="1227.4901" y2="-3653.8022" gradientTransform="matrix(0.9204 0.3909 -0.3909 0.9204 -657.7054 3488.7632)">
		<stop  offset="0" style="stop-color:#212121"/>
		<stop  offset="1" style="stop-color:#686868"/>
	</linearGradient>
	<polygon class="st78" points="1926.4,544.2 1783.1,628.3 1701.8,566.3 	"/>
	
		<linearGradient id="SVGID_67_" gradientUnits="userSpaceOnUse" x1="1128.4172" y1="-3608.1289" x2="1227.4901" y2="-3608.1289" gradientTransform="matrix(0.9204 0.3909 -0.3909 0.9204 -657.7054 3488.7632)">
		<stop  offset="0" style="stop-color:#212121"/>
		<stop  offset="1" style="stop-color:#686868"/>
	</linearGradient>
	<polygon class="st79" points="1926.4,544.2 1796.5,733.3 1790.2,657.3 1783.1,628.3 	"/>
	
		<linearGradient id="SVGID_68_" gradientUnits="userSpaceOnUse" x1="1101.719" y1="-3546.1685" x2="1128.4172" y2="-3546.1685" gradientTransform="matrix(0.9204 0.3909 -0.3909 0.9204 -657.7054 3488.7632)">
		<stop  offset="0" style="stop-color:#212121"/>
		<stop  offset="1" style="stop-color:#686868"/>
	</linearGradient>
	<polygon class="st80" points="1783.1,628.3 1724.7,697.5 1768,616.9 	"/>
	
		<linearGradient id="SVGID_69_" gradientUnits="userSpaceOnUse" x1="1101.719" y1="-3543.8289" x2="1147.9912" y2="-3543.8289" gradientTransform="matrix(0.9204 0.3909 -0.3909 0.9204 -657.7054 3488.7632)">
		<stop  offset="0" style="stop-color:#212121"/>
		<stop  offset="1" style="stop-color:#686868"/>
	</linearGradient>
	<polygon class="st81" points="1790.5,660.9 1724.7,697.5 1783.1,628.3 	"/>
</g>
<g>
	<linearGradient id="SVGID_70_" gradientUnits="userSpaceOnUse" x1="94.7076" y1="266.858" x2="162.7074" y2="173.5249">
		<stop  offset="0" style="stop-color:#212121"/>
		<stop  offset="1" style="stop-color:#686868"/>
	</linearGradient>
	<polygon class="st82" points="22.5,200.8 165.8,284.9 247.1,222.9 	"/>
	<linearGradient id="SVGID_71_" gradientUnits="userSpaceOnUse" x1="121.175" y1="231.3785" x2="64.5082" y2="338.7122">
		<stop  offset="0" style="stop-color:#212121"/>
		<stop  offset="1" style="stop-color:#686868"/>
	</linearGradient>
	<polygon class="st83" points="22.5,200.8 152.4,389.9 158.7,313.9 165.8,284.9 	"/>
	<linearGradient id="SVGID_72_" gradientUnits="userSpaceOnUse" x1="178.6745" y1="277.0938" x2="198.3412" y2="328.0938">
		<stop  offset="0" style="stop-color:#212121"/>
		<stop  offset="1" style="stop-color:#686868"/>
	</linearGradient>
	<polygon class="st84" points="165.8,284.9 224.2,354 180.9,273.4 	"/>
	
		<linearGradient id="SVGID_73_" gradientUnits="userSpaceOnUse" x1="-12871.3086" y1="2017.4745" x2="-12825.0361" y2="2017.4745" gradientTransform="matrix(-0.9204 0.3909 0.3909 0.9204 -12428.0801 3488.7632)">
		<stop  offset="0" style="stop-color:#212121"/>
		<stop  offset="1" style="stop-color:#686868"/>
	</linearGradient>
	<polygon class="st85" points="158.4,317.4 224.2,354 165.8,284.9 	"/>
</g>
<path class="st58" d="M1777.8,1068.3L1777.8,1068.3c-14.8-1.4-27.7-3.2-39.4-5.6l0,0l0-0.1l2.9-14.7l0.1,0c11.1,2.2,23.8,4,37.8,5.4
	l0,0L1777.8,1068.3z"/>
<path class="st58" d="M1713.4,1056.2L1713.4,1056.2c-16.1-5.4-28.1-12-36.7-20.5l0,0l10.5-10.7l0,0c6.9,6.7,17.3,12.5,30.9,17l0.1,0
	L1713.4,1056.2z"/>
<path class="st58" d="M1660.1,1015.2L1660.1,1015.2c-7.9-11.2-14.6-23-20.1-35l0,0l0.1,0l13.6-6.2l0,0c5.1,11.2,11.4,22.2,18.7,32.5
	l0,0L1660.1,1015.2z"/>
<path class="st58" d="M1630.8,956L1630.8,956c-3.9-12.8-6.7-26.1-8.2-39.6l0,0l14.9-1.6l0,0.1c1.4,12.6,3.9,24.9,7.6,36.7l0,0
	l-0.1,0L1630.8,956z"/>
<path class="st58" d="M1636.4,890.7L1636.4,890.7l-15-0.1v-0.1c0.1-13,1.2-26.5,3.5-40v-0.1l14.8,2.4v0.1
	C1637.6,865.8,1636.5,878.4,1636.4,890.7L1636.4,890.7z"/>
<path class="st58" d="M1644.7,829.3L1644.7,829.3l-14.5-3.7l0-0.1c3.3-12.6,7.4-25.3,12.4-38l0,0l0.1,0l13.9,5.5l0,0
	C1651.8,805.1,1647.8,817.2,1644.7,829.3L1644.7,829.3z"/>
<path class="st58" d="M1666.3,770.6L1666.3,770.6l-13.5-6.5l0,0c10.3-21.4,19.3-34.5,19.7-35.1l0,0l0.1,0l12.3,8.5c0,0,0,0-0.1,0.1
	c0,0.1-0.1,0.2-0.3,0.4c-0.2,0.3-0.6,0.9-1.1,1.6c-0.9,1.3-2.3,3.5-4,6.5C1676.3,751.4,1671.5,759.8,1666.3,770.6L1666.3,770.6z"/>
<g>
	<g>
		<path class="st48" d="M1817.5,1533.1c0.2-0.6,20.3-60.9-27.4-78.8c-19.2-7.2-31.4-0.5-38.3,6.4c-17,17-19.9,53.1-11.9,74.9
			l4.1-1.5c-7.6-20.6-5-54.6,10.9-70.3c8.7-8.7,20.1-10.5,33.7-5.4c43.8,16.4,25,72.7,24.8,73.3L1817.5,1533.1z"/>
	</g>
	
		<linearGradient id="SVGID_74_" gradientUnits="userSpaceOnUse" x1="-4676.9565" y1="3840.3308" x2="-4444.4624" y2="3840.3308" gradientTransform="matrix(-0.9994 3.420000e-02 3.420000e-02 0.9994 -2904.5342 -2055.4204)">
		<stop  offset="0" style="stop-color:#FFC05B"/>
		<stop  offset="0.2746" style="stop-color:#FFC25E"/>
		<stop  offset="0.5164" style="stop-color:#FFC969"/>
		<stop  offset="0.7459" style="stop-color:#FFD57B"/>
		<stop  offset="0.9666" style="stop-color:#FFE694"/>
		<stop  offset="1" style="stop-color:#FFE999"/>
	</linearGradient>
	<path class="st86" d="M1672,1730.2l232.4-7.9c0,0-26.8-146.3-33.8-198.4l-178.4,6.1C1692.2,1530,1680.9,1710.8,1672,1730.2z"/>
	
		<linearGradient id="SVGID_75_" gradientUnits="userSpaceOnUse" x1="-4596.9355" y1="3769.3328" x2="-4585.4595" y2="3769.3328" gradientTransform="matrix(-0.9994 3.420000e-02 3.420000e-02 0.9994 -2904.5342 -2055.4204)">
		<stop  offset="0" style="stop-color:#F3F7FF"/>
		<stop  offset="1" style="stop-color:#CDD9FF"/>
	</linearGradient>
	<circle class="st87" cx="1812.8" cy="1554.6" r="5.7"/>
	
		<linearGradient id="SVGID_76_" gradientUnits="userSpaceOnUse" x1="-4523.3462" y1="3769.3315" x2="-4511.8706" y2="3769.3315" gradientTransform="matrix(-0.9994 3.420000e-02 3.420000e-02 0.9994 -2904.5342 -2055.4204)">
		<stop  offset="0" style="stop-color:#F3F7FF"/>
		<stop  offset="1" style="stop-color:#CDD9FF"/>
	</linearGradient>
	<path class="st88" d="M1733.5,1557.3c0.1,3.2,2.8,5.6,5.9,5.5c3.2-0.1,5.6-2.8,5.5-5.9c-0.1-3.2-2.8-5.6-5.9-5.5
		C1735.9,1551.5,1733.4,1554.2,1733.5,1557.3z"/>
	<g>
		<path class="st48" d="M1739.3,1558.9c0.3,0,0.5-0.1,0.8-0.2c1.4-0.5,2-2,1.5-3.4c-8-21.6-6.3-55.9,8.9-72.3
			c8.6-9.3,20.4-11.9,35.1-7.7c10.6,3,18.4,9.1,23.2,18c12.4,23.1,1.4,58.2,1.3,58.5c-0.4,1.4,0.3,2.8,1.7,3.3
			c1.4,0.4,2.8-0.3,3.3-1.7c0.5-1.5,11.8-37.5-1.6-62.6c-5.5-10.3-14.4-17.2-26.4-20.6c-16.5-4.7-30.5-1.5-40.4,9.2
			c-16.5,17.9-18.5,54.6-10,77.7C1737.2,1558.3,1738.2,1559,1739.3,1558.9z"/>
	</g>
</g>
<g>
</g>
<g>
	<g>
		<path class="st58" d="M223.1,904.2l-7.1-8.4c0,0,4.5-3.8,11.6-10.5l7.6,8C227.8,900.2,223.2,904,223.1,904.2z"/>
	</g>
	<g>
		<path class="st58" d="M257.4,870.3l-8.1-7.4c7-7.7,13.8-15.7,20.2-23.8l8.6,6.8C271.5,854.2,264.6,862.4,257.4,870.3z M297,820.2
			l-9.1-6.2c5.9-8.8,11.4-17.7,16.3-26.4l9.6,5.3C308.7,802,303.1,811.2,297,820.2z M327.9,764.2l-10.1-4.3
			c4.2-9.7,7.6-19.5,10.4-29l10.6,3C335.9,743.9,332.3,754.1,327.9,764.2z M345.3,702.2l-10.9-1.4c1-7.5,1.5-15.1,1.4-22.5
			c0-2.7-0.1-5.4-0.2-8l11-0.5c0.1,2.8,0.2,5.7,0.2,8.6C346.9,686.2,346.3,694.2,345.3,702.2z M331.4,640.2
			c-2.4-9.8-5.7-19.4-9.9-28.8l10-4.5c4.5,10,8,20.3,10.5,30.7L331.4,640.2z M236.1,628.2c-11.6-1.1-21-9.7-26.4-23.9l10.3-3.9
			c2.7,7.2,7.9,16,17.2,16.9L236.1,628.2z M269.2,623l-3.3-10.5c9.7-3,18.7-7.4,26.7-13l6.3,9C290.1,614.7,280.1,619.6,269.2,623z
			 M322.5,585.1l-7.9-5.7l-8,5.3l-0.2-0.2c-6.2-9.3-12.3-17.6-18.2-24.6l8.5-7c5.8,7,11.9,15.2,18,24.3c5.1-7.4,9.4-15.7,12.7-24.9
			l10.4,3.7C333.9,566.7,328.8,576.5,322.5,585.1z M216,571.5l-11-0.5c0.5-12.1,3.3-23.7,7.8-32.7l9.8,4.9
			C218.8,550.9,216.4,560.9,216,571.5z M266.8,538.5c-9.4-7.2-17.8-10.7-25-10.3l-0.6-11c0.5,0,1.1,0,1.6,0
			c9.5,0,19.8,4.3,30.7,12.7L266.8,538.5z M345.3,524.1l-10.9-1.4c1-7.7,1.5-16,1.5-24.5c0-1.6,0-3.2-0.1-4.8c0-0.4,0-0.9,0-1.3
			l11-0.4c0,0.5,0,1,0,1.4c0,1.7,0.1,3.3,0.1,5C346.9,507.2,346.4,515.9,345.3,524.1z M330.4,462.9c-3.1-9.1-7.6-18.2-13.3-26.9
			l9.2-6c6.2,9.5,11.1,19.4,14.5,29.4L330.4,462.9z M297.9,412.3c-6.8-7-14.6-13.8-23.1-20.3l6.7-8.8c8.9,6.8,17.1,13.9,24.3,21.3
			L297.9,412.3z"/>
	</g>
	<g>
		<path class="st58" d="M248.9,374.9c-8.2-4.7-13.6-7.2-13.7-7.2l4.5-10c0.2,0.1,5.9,2.7,14.6,7.7L248.9,374.9z"/>
	</g>
</g>
</svg>
