<svg xmlns="http://www.w3.org/2000/svg" width="85.965" height="76.482" viewBox="0 0 85.965 76.482">
  <path id="heart" d="M42.983,76.482a5.041,5.041,0,0,1-3.323-1.249c-3.473-3.037-6.821-5.89-9.775-8.408l-.015-.013C21.209,59.432,13.73,53.058,8.526,46.779,2.709,39.76,0,33.105,0,25.835A26.869,26.869,0,0,1,6.82,7.485,23.116,23.116,0,0,1,24.015,0,21.623,21.623,0,0,1,37.522,4.663a27.634,27.634,0,0,1,5.461,5.7,27.637,27.637,0,0,1,5.461-5.7A21.623,21.623,0,0,1,61.951,0a23.117,23.117,0,0,1,17.2,7.485,26.868,26.868,0,0,1,6.819,18.35c0,7.27-2.709,13.925-8.526,20.944-5.2,6.279-12.682,12.652-21.341,20.032-2.959,2.521-6.313,5.379-9.793,8.423a5.045,5.045,0,0,1-3.323,1.247ZM24.015,5.036A18.136,18.136,0,0,0,10.521,10.9,21.857,21.857,0,0,0,5.035,25.835c0,6.115,2.273,11.583,7.368,17.731,4.925,5.943,12.25,12.185,20.732,19.414l.016.013c2.965,2.527,6.326,5.392,9.825,8.451,3.519-3.065,6.886-5.934,9.857-8.465,8.481-7.228,15.806-13.469,20.731-19.412,5.095-6.148,7.367-11.617,7.367-17.731A21.857,21.857,0,0,0,75.444,10.9,18.135,18.135,0,0,0,61.951,5.036a16.7,16.7,0,0,0-10.427,3.61,24.436,24.436,0,0,0-5.811,6.724,3.179,3.179,0,0,1-5.461,0,24.413,24.413,0,0,0-5.811-6.724,16.7,16.7,0,0,0-10.426-3.61Zm0,0" transform="translate(0)" fill="#4fbfdd"/>
</svg>
